1.000000000000000048e-04 -7.872343806474016503e+01
1.001002000000000010e+02 2.469531389579802862e+02
2.002002999999999986e+02 4.166326667421391221e+02
3.003003999999999678e+02 2.714393472363691444e+02
4.004004999999999654e+02 1.721843708680441409e+02
5.005005999999999631e+02 4.197071794804591605e+02
6.006006999999999607e+02 5.675237239886264433e+02
7.007007999999999583e+02 5.544229308676276560e+02
8.008008999999999560e+02 8.856909999805204734e+02
9.009009999999999536e+02 1.040560433173971660e+03
1.001001099999999951e+03 1.080812880165827664e+03
1.101101199999999835e+03 1.039319326903050523e+03
1.201201299999999947e+03 1.094975377849315691e+03
1.301301400000000058e+03 1.097439284478914942e+03
1.401401499999999942e+03 1.410775688191159361e+03
1.501501599999999826e+03 1.220593683044489353e+03
1.601601699999999937e+03 1.511891286018564188e+03
1.701701800000000048e+03 1.691364576047329138e+03
1.801801899999999932e+03 1.742090522505284753e+03
1.901901999999999816e+03 1.744769851448286545e+03
2.002002099999999928e+03 1.695372926262485407e+03
2.102102200000000266e+03 2.028431787470003428e+03
2.202202299999999923e+03 1.899427618631985524e+03
2.302302400000000034e+03 2.141673811203576861e+03
2.402402500000000146e+03 2.179541271098114521e+03
2.502502600000000257e+03 2.238888649342407462e+03
2.602602700000000368e+03 2.272762740490245505e+03
2.702702800000000025e+03 2.591586749833429622e+03
2.802802900000000136e+03 2.435211102618452060e+03
2.902903000000000247e+03 2.337611708448624995e+03
3.003003099999999904e+03 2.576649698405425170e+03
3.103103200000000015e+03 2.578893425557187129e+03
3.203203300000000127e+03 2.783282958460421469e+03
3.303303400000000238e+03 2.742363576665119581e+03
3.403403500000000349e+03 2.894167515733543041e+03
3.503503600000000006e+03 2.940512971451104931e+03
3.603603700000000117e+03 2.929304569995216298e+03
3.703703800000000228e+03 2.926236152752246653e+03
3.803803899999999885e+03 2.976110466192671083e+03
3.903903999999999996e+03 3.103313367194463808e+03
4.004004100000000108e+03 3.066980294027953732e+03
4.104104199999999764e+03 3.076375384393382774e+03
4.204204300000000330e+03 3.125903049685377482e+03
4.304304399999999987e+03 3.294098994493276678e+03
4.404404499999999643e+03 3.409281470133294988e+03
4.504504600000000210e+03 3.240215256144498653e+03
4.604604699999999866e+03 3.046738133255138109e+03
4.704704800000000432e+03 3.278338233988302363e+03
4.804804900000000089e+03 3.180321857105425806e+03
4.904904999999999745e+03 3.096058554423584610e+03
5.005005100000000311e+03 3.216721562055809045e+03
5.105105199999999968e+03 3.329429640930904043e+03
5.205205300000000534e+03 3.347861208728226757e+03
5.305305400000000191e+03 3.272401289925857327e+03
5.405405499999999847e+03 3.412310220735810617e+03
5.505505600000000413e+03 3.258124291094406544e+03
5.605605700000000070e+03 3.406516694329545771e+03
5.705705799999999726e+03 3.306187805513206058e+03
5.805805900000000292e+03 3.218263351116235299e+03
5.905905999999999949e+03 3.179179814994566186e+03
6.006006099999999606e+03 3.248444348622739199e+03
6.106106200000000172e+03 3.464819287566541789e+03
6.206206299999999828e+03 3.075353653702471547e+03
6.306306400000000394e+03 3.283664872733004813e+03
6.406406500000000051e+03 3.340477039605114896e+03
6.506506599999999708e+03 3.071132440027349276e+03
6.606606700000000274e+03 3.226700675131598473e+03
6.706706799999999930e+03 3.022736054591223819e+03
6.806806900000000496e+03 2.974082729019891303e+03
6.906907000000000153e+03 3.020186973481585937e+03
7.007007099999999809e+03 3.010453419574982945e+03
7.107107200000000375e+03 3.077244411646403933e+03
7.207207300000000032e+03 2.894385687488464100e+03
7.307307399999999689e+03 2.926252606151576856e+03
7.407407500000000255e+03 2.841798927376723441e+03
7.507507599999999911e+03 2.667150958728038404e+03
7.607607699999999568e+03 2.892311770640728355e+03
7.707707800000000134e+03 2.770465589352573716e+03
7.807807899999999790e+03 2.665751582897048138e+03
7.907908000000000357e+03 2.666506440387523980e+03
8.008008100000000013e+03 2.646200954043459205e+03
8.108108199999999670e+03 2.639126235844579242e+03
8.208208299999998417e+03 2.631586134887942080e+03
8.308308399999999892e+03 2.454771054740254840e+03
8.408408499999999549e+03 2.289417957801228567e+03
8.508508599999999205e+03 2.371320991746315030e+03
8.608608699999998862e+03 2.365316372880220570e+03
8.708708799999998519e+03 2.461040897612000208e+03
8.808808899999998175e+03 2.289691123061279541e+03
8.908908999999999651e+03 2.190009257704859920e+03
9.009009099999999307e+03 2.199279276550593750e+03
9.109109199999998964e+03 2.296025223948009625e+03
9.209209299999998620e+03 2.072195548237657931e+03
9.309309399999998277e+03 2.024820502153747611e+03
9.409409499999999753e+03 2.164179835218690641e+03
9.509509599999999409e+03 2.133417887075909675e+03
9.609609699999999066e+03 2.106474412220915383e+03
9.709709799999998722e+03 1.769706541214791514e+03
9.809809899999998379e+03 1.705427377623522943e+03
9.909909999999999854e+03 1.779174656289561881e+03
1.001001009999999951e+04 1.820710313932994950e+03
1.011011019999999917e+04 1.823542354906215678e+03
1.021021029999999882e+04 1.779251310289492267e+03
1.031031039999999848e+04 1.564654435751619076e+03
1.041041049999999996e+04 1.705829839445082371e+03
1.051051059999999961e+04 1.515218924827751152e+03
1.061061069999999927e+04 1.574393898348867651e+03
1.071071079999999893e+04 1.681957280936374673e+03
1.081081089999999858e+04 1.437024602582967191e+03
1.091091099999999824e+04 1.396938502733624091e+03
1.101101109999999971e+04 1.537473094452776877e+03
1.111111119999999937e+04 1.395965045747102977e+03
1.121121129999999903e+04 1.146328554933753594e+03
1.131131139999999868e+04 1.328624023436086190e+03
1.141141149999999834e+04 1.144336744683304914e+03
1.151151159999999982e+04 1.266769089187676855e+03
1.161161169999999947e+04 1.097758600983467659e+03
1.171171179999999913e+04 9.249248909712925979e+02
1.181181189999999879e+04 1.323738567964185904e+03
1.191191199999999844e+04 1.102254012462831497e+03
1.201201209999999810e+04 9.256173736035012780e+02
1.211211219999999958e+04 9.625425762426268648e+02
1.221221229999999923e+04 1.023847961308144704e+03
1.231231239999999889e+04 8.241232836737297021e+02
1.241241249999999854e+04 1.058028078326682817e+03
1.251251259999999820e+04 8.209397877532857137e+02
1.261261269999999968e+04 9.057922831806230306e+02
1.271271279999999933e+04 8.491023296640146327e+02
1.281281289999999899e+04 6.648001164812553725e+02
1.291291299999999865e+04 9.670246675978052053e+02
1.301301309999999830e+04 8.438698950867910753e+02
1.311311319999999978e+04 7.783932378954874594e+02
1.321321329999999944e+04 5.751347951952884614e+02
1.331331339999999909e+04 7.038607218403237766e+02
1.341341349999999875e+04 6.571372205168649998e+02
1.351351359999999841e+04 5.085008120051963942e+02
1.361361369999999988e+04 6.674856986703458688e+02
1.371371379999999954e+04 5.507801308787097696e+02
1.381381389999999919e+04 6.473193465243424498e+02
1.391391399999999885e+04 4.870444446221641215e+02
1.401401409999999851e+04 5.801220357582803899e+02
1.411411419999999816e+04 6.072831758557690591e+02
1.421421429999999964e+04 3.760699529674420205e+02
1.431431439999999930e+04 5.077387458489171763e+02
1.441441449999999895e+04 5.997253445984515565e+02
1.451451459999999861e+04 4.433841919765993111e+02
1.461461469999999827e+04 4.647086251667582815e+02
1.471471479999999974e+04 4.276441806613160566e+02
1.481481489999999940e+04 2.996034189893576354e+02
1.491491499999999905e+04 3.655522546342624537e+02
1.501501509999999871e+04 2.198351213386206098e+02
1.511511519999999837e+04 3.500711619207157810e+02
1.521521529999999802e+04 4.692145633012418102e+02
1.531531539999999950e+04 2.898417988582515363e+02
1.541541549999999916e+04 1.947137598721407983e+02
1.551551559999999881e+04 2.744751617161256831e+02
1.561561569999999847e+04 3.527109813104241880e+02
1.571571579999999813e+04 2.830464752050389734e+02
1.581581589999999960e+04 2.672241494885524276e+02
1.591591599999999926e+04 2.516090638881075847e+02
1.601601609999999891e+04 1.480762080861081245e+02
1.611611619999999857e+04 3.099577301120323227e+02
1.621621629999999823e+04 1.310322245017260911e+00
1.631631639999999970e+04 6.508550979100004952e+01
1.641641649999999936e+04 3.886060670699766320e+02
1.651651659999999902e+04 2.114899926004861186e+01
1.661661670000000231e+04 3.689470444426434881e+01
1.671671680000000197e+04 1.115566803717939166e+02
1.681681690000000162e+04 1.658064112656259397e+02
1.691691700000000128e+04 3.174752689803345902e+02
1.701701710000000094e+04 2.613892721237654087e+02
1.711711720000000059e+04 -4.237780861696344914e+01
1.721721730000000025e+04 2.127958522196300351e+02
1.731731739999999991e+04 2.188878964224074366e+02
1.741741749999999956e+04 1.806161195870274128e+02
1.751751759999999922e+04 1.259412449217416281e+02
1.761761769999999888e+04 -9.629474478465303378e+01
1.771771780000000217e+04 6.139379703444411973e+01
1.781781790000000183e+04 1.853682729304703685e+02
1.791791800000000148e+04 -1.313519690632203378e+02
1.801801810000000114e+04 1.977338667151622076e+02
1.811811820000000080e+04 6.672314243619400997e+01
1.821821830000000045e+04 2.724357987164798942e+02
1.831831840000000011e+04 1.786205420204765915e+02
1.841841849999999977e+04 -8.609996497707891194e+01
1.851851859999999942e+04 -2.260567585923210743e+02
1.861861869999999908e+04 6.045617969580102624e+01
1.871871880000000237e+04 -6.003448743070426730e+01
1.881881890000000203e+04 -4.861872460215247571e+01
1.891891900000000169e+04 7.738410918466047406e+01
1.901901910000000134e+04 -2.316547076618656575e+01
1.911911920000000100e+04 -4.115916746257795467e+00
1.921921930000000066e+04 6.454972747522882059e+01
1.931931940000000031e+04 1.232655339638211842e+02
1.941941949999999997e+04 3.249027659175882121e+01
1.951951959999999963e+04 9.467435108415783418e+01
1.961961969999999928e+04 -2.123895186660281098e+01
1.971971979999999894e+04 -1.080934108890473624e+02
1.981981990000000224e+04 1.381153506197520109e+01
1.991992000000000189e+04 2.042193357346798734e+02
2.002002010000000155e+04 1.113511779480006254e+02
2.012012020000000120e+04 1.680356429639010685e+02
2.022022030000000086e+04 1.181938341181003977e+02
2.032032040000000052e+04 -1.074273045814925354e+02
2.042042050000000017e+04 6.857674604102953708e+01
2.052052059999999983e+04 -9.750723700343128542e+01
2.062062069999999949e+04 -5.789814369283576667e+01
2.072072079999999914e+04 5.352672824580322697e+01
2.082082090000000244e+04 4.228933960324092567e+01
2.092092100000000210e+04 -2.780336578974995376e+01
2.102102110000000175e+04 4.509762459561267889e+01
2.112112120000000141e+04 -9.640938484811119480e+00
2.122122130000000107e+04 -8.632460324285032982e+01
2.132132140000000072e+04 -2.279108293874728588e+02
2.142142150000000038e+04 -6.092970150138113183e+01
2.152152160000000003e+04 1.908588527538327071e+02
2.162162169999999969e+04 -7.562814942871470691e+01
2.172172179999999935e+04 -4.253760266751759644e+01
2.182182189999999900e+04 1.081823511913731437e+02
2.192192200000000230e+04 2.957066285745037817e+02
2.202202210000000196e+04 5.734608295092056807e+01
2.212212220000000161e+04 -2.759120590420277352e+01
2.222222230000000127e+04 -7.831541221006698805e+00
2.232232240000000093e+04 2.001029073835785255e+02
2.242242250000000058e+04 -1.195763784917940242e+01
2.252252260000000024e+04 -4.733728401919628936e+01
2.262262269999999990e+04 -6.833058419694046393e+01
2.272272279999999955e+04 -1.072448017359915582e+02
2.282282289999999921e+04 9.055036058573845992e+01
2.292292299999999886e+04 -6.546091524377894189e+01
2.302302310000000216e+04 1.195760427367257250e+02
2.312312320000000182e+04 1.237339160785957546e+02
2.322322330000000147e+04 -9.562949358320256010e+01
2.332332340000000113e+04 1.799506081964970576e+02
2.342342350000000079e+04 1.483175693203307048e+02
2.352352360000000044e+04 -1.396555470360491142e+02
2.362362370000000010e+04 2.778848341438797576e+01
2.372372379999999976e+04 -6.267373041086803909e+01
2.382382389999999941e+04 1.928425134286779326e+02
2.392392399999999907e+04 1.074924701799307911e+02
2.402402409999999873e+04 2.097595777623438096e+02
2.412412420000000202e+04 -4.310468207570620081e+01
2.422422430000000168e+04 -9.165268023592410884e+01
2.432432440000000133e+04 -1.561861534272089500e+02
2.442442450000000099e+04 2.646058145296677111e+01
2.452452460000000065e+04 -8.030006805656879010e+01
2.462462470000000030e+04 8.915507795777564581e+01
2.472472479999999996e+04 -2.325427351173546953e+01
2.482482489999999962e+04 -1.804864739388293629e+02
2.492492499999999927e+04 3.160935194097851308e+01
2.502502509999999893e+04 3.156896703196489185e+01
2.512512520000000222e+04 -2.174220033194997370e+02
2.522522530000000188e+04 -9.177614644939444588e+01
2.532532540000000154e+04 8.129486474145592467e+01
2.542542550000000119e+04 7.404426165805307392e+01
2.552552560000000085e+04 4.519430523358931850e+01
2.562562570000000051e+04 6.440384461870380051e+01
2.572572580000000016e+04 -5.001016413827174745e+01
2.582582589999999982e+04 2.878601382060344349e+01
2.592592599999999948e+04 6.071224105684103023e+01
2.602602609999999913e+04 -1.295624176002872616e+02
2.612612619999999879e+04 1.516836095233892934e+02
2.622622630000000208e+04 -4.553005459644889186e+01
2.632632640000000174e+04 7.503617571076856052e+01
2.642642650000000140e+04 1.693313575747467041e+02
2.652652660000000105e+04 3.116427340634250598e+01
2.662662670000000071e+04 1.846557286139127285e+00
2.672672680000000037e+04 -7.931011023683799976e+01
2.682682690000000002e+04 -3.354143104473376713e+00
2.692692699999999968e+04 -1.187299687366327277e+02
2.702702709999999934e+04 -4.222182432732763147e+01
2.712712719999999899e+04 -1.513395607839984081e+01
2.722722730000000229e+04 -3.699862542702168611e+01
2.732732740000000194e+04 -1.090184729126497274e+02
2.742742750000000160e+04 1.709239413852669998e+02
2.752752760000000126e+04 -3.321969840504510785e+01
2.762762770000000091e+04 -2.431268744065988301e+02
2.772772780000000057e+04 -7.382017691143111904e+01
2.782782790000000023e+04 1.412016140899586958e+02
2.792792799999999988e+04 -9.035942409637537764e+01
2.802802809999999954e+04 -1.071251753188430342e+02
2.812812819999999920e+04 -3.158249747606429736e+01
2.822822829999999885e+04 -3.743832421296325919e+01
2.832832840000000215e+04 1.060152390251516010e+02
2.842842850000000180e+04 -7.000605477805845567e+01
2.852852860000000146e+04 -1.356550121549758181e+01
2.862862870000000112e+04 2.369325240615117067e+01
2.872872880000000077e+04 -2.920380904542406029e+02
2.882882890000000043e+04 -3.433744861021481132e+00
2.892892900000000009e+04 -1.200071383538224268e+01
2.902902909999999974e+04 1.138218305495702793e+02
2.912912919999999940e+04 -3.828318324852924093e+01
2.922922929999999906e+04 6.334214008855405353e+01
2.932932939999999871e+04 -1.693475786010684487e+02
2.942942950000000201e+04 -1.911273566803344863e+02
2.952952960000000166e+04 -9.988425897432404099e+01
2.962962970000000132e+04 9.176532007100419719e+01
2.972972980000000098e+04 -1.071227908411045178e+02
2.982982990000000063e+04 -1.119860868184102998e+02
2.992993000000000029e+04 -4.761063553453265484e+01
3.003003009999999995e+04 -3.002757725797806643e+01
3.013013019999999960e+04 -2.556999321458862653e+02
3.023023029999999926e+04 7.589120744737873281e+01
3.033033039999999892e+04 6.630208520262684146e+01
3.043043049999999857e+04 -5.163618458885026463e+00
3.053053060000000187e+04 1.342950886850100005e+02
3.063063070000000153e+04 -8.149303870762980750e+01
3.073073080000000118e+04 2.425241055475880003e+01
3.083083090000000084e+04 1.432074030983108059e+02
3.093093100000000049e+04 4.803246680577910155e+01
3.103103110000000015e+04 -6.344576633505067775e+01
3.113113119999999981e+04 -5.777999061455660268e+01
3.123123129999999946e+04 1.500213512718060542e+02
3.133133139999999912e+04 -1.373767741943885028e+02
3.143143149999999878e+04 9.594236716793803055e+01
3.153153160000000207e+04 -1.221776816039261320e+02
3.163163170000000173e+04 -2.972209629171718248e+01
3.173173180000000139e+04 4.604620720523346478e+01
3.183183190000000104e+04 -6.957857930794046908e+00
3.193193200000000070e+04 1.435791058946703913e+02
3.203203210000000036e+04 -1.123250985194036566e+01
3.213213220000000001e+04 -9.382847923608741780e+01
3.223223229999999967e+04 -2.024001887239571218e+01
3.233233239999999932e+04 -8.860502006221992133e+01
3.243243249999999898e+04 9.279620085663622397e-01
3.253253259999999864e+04 -1.884724360090311990e+01
3.263263270000000193e+04 1.720909461926225958e+02
3.273273280000000159e+04 4.309112030396733672e+01
3.283283289999999397e+04 -9.473253848411489741e+01
3.293293299999999726e+04 5.651989959272020769e+01
3.303303309999999328e+04 1.954444417622407855e+02
3.313313319999999658e+04 8.753088981496114229e+01
3.323323329999999987e+04 -1.862087336791429379e+02
3.333333339999999589e+04 -3.941077203607069634e+01
3.343343349999999919e+04 -1.467103786064316040e+01
3.353353359999999520e+04 1.265529575487879441e+02
3.363363369999999850e+04 1.565666269371000574e+01
3.373373379999999452e+04 -1.103462947201151252e+02
3.383383389999999781e+04 -6.456678697028860370e+01
3.393393399999999383e+04 1.116135549651329200e+02
3.403403409999999712e+04 4.652165710741815019e+01
3.413413419999999314e+04 -5.989194145454115414e+01
3.423423429999999644e+04 9.844869904844220088e+00
3.433433439999999973e+04 -1.588631967617328371e+02
3.443443449999999575e+04 -3.286786001411236668e+01
3.453453459999999905e+04 7.561490862476411223e+01
3.463463469999999506e+04 2.437317767696839041e+02
3.473473479999999836e+04 9.304143905820552618e+01
3.483483489999999438e+04 2.442514060797450952e+02
3.493493499999999767e+04 6.726414533408578222e+01
3.503503509999999369e+04 -9.269321007624319009e+01
3.513513519999999698e+04 1.665627387169391795e+02
3.523523529999999300e+04 -7.402293599516585232e+01
3.533533539999999630e+04 1.182118078620632495e+01
3.543543549999999959e+04 -9.745768737790291425e+01
3.553553559999999561e+04 -6.072029122511467847e+01
3.563563569999999891e+04 1.810768356295092474e+02
3.573573579999999492e+04 -1.240116271803125727e+02
3.583583589999999822e+04 2.816544076094444460e+00
3.593593599999999424e+04 -2.491006053652789376e+01
3.603603609999999753e+04 -1.201983730018696406e+02
3.613613619999999355e+04 -1.674171983753550421e+02
3.623623629999999685e+04 -5.152999958856278795e+01
3.633633640000000014e+04 -1.596893154048870827e+02
3.643643649999999616e+04 1.439640522832089289e+02
3.653653659999999945e+04 -8.848626473135837500e+00
3.663663669999999547e+04 -1.687469292731665291e+02
3.673673679999999877e+04 9.656519167736787779e+01
3.683683689999999478e+04 1.034593743039606437e+02
3.693693699999999808e+04 -3.295160193350070443e+01
3.703703709999999410e+04 -5.928541742348033949e+01
3.713713719999999739e+04 -4.338425292102535025e+01
3.723723729999999341e+04 -1.043938449060709956e+02
3.733733739999999671e+04 1.205771277212547261e+02
3.743743750000000000e+04 -5.547787203185373528e+01
3.753753759999999602e+04 4.551215508312716196e+01
3.763763769999999931e+04 6.392049343694687025e+01
3.773773779999999533e+04 6.177322628959728945e+01
3.783783789999999863e+04 -9.131962072433731237e+01
3.793793799999999464e+04 9.283653681711042793e+01
3.803803809999999794e+04 5.108037562557763067e+01
3.813813819999999396e+04 -2.294532211909814023e+01
3.823823829999999725e+04 -1.152247710883134459e+02
3.833833839999999327e+04 -4.556427197217181480e+00
3.843843849999999657e+04 -1.466754380319196400e+02
3.853853859999999986e+04 -4.747830449906703620e+01
3.863863869999999588e+04 9.251701204965999636e+01
3.873873879999999917e+04 -3.524220728264886304e+01
3.883883889999999519e+04 -7.647458362083229133e+01
3.893893899999999849e+04 -1.434239339783521849e+01
3.903903909999999451e+04 -1.528688392603233410e+02
3.913913919999999780e+04 8.583556872628801671e+01
3.923923929999999382e+04 -6.649426070658542187e+01
3.933933939999999711e+04 -1.696625456740698326e+02
3.943943949999999313e+04 -1.077056628760999644e+02
3.953953959999999643e+04 7.169534435804260397e+01
3.963963969999999972e+04 1.468157201469275606e+02
3.973973979999999574e+04 2.319886121464134305e+02
3.983983989999999903e+04 -1.001836350899516219e+02
3.993993999999999505e+04 -2.713240849912481778e+01
4.004004009999999835e+04 -4.182811757279662856e+01
4.014014019999999437e+04 -1.455693263559880961e+02
4.024024029999999766e+04 -1.621223255032129273e+01
4.034034039999999368e+04 3.922480366045024169e+01
4.044044049999999697e+04 -4.663902286068446301e+01
4.054054059999999299e+04 2.335858885521755468e+01
4.064064069999999629e+04 -9.777922527111056183e+01
4.074074079999999958e+04 -6.736235883083972453e+01
4.084084089999999560e+04 2.103225785205181069e+02
4.094094099999999889e+04 -4.619250199171307258e+01
4.104104109999999491e+04 3.527277144400245845e+01
4.114114119999999821e+04 -6.743621485732691667e+01
4.124124129999999423e+04 1.723390117476222940e+02
4.134134139999999752e+04 1.128971243203443890e+02
4.144144149999999354e+04 -6.186669480921995046e+01
4.154154159999999683e+04 -3.320699539027057057e+01
4.164164170000000013e+04 1.222196749350155329e+02
4.174174179999999615e+04 -1.142868239717677739e+02
4.184184189999999944e+04 -6.010474251330788320e+01
4.194194199999999546e+04 -3.296948376359572563e+01
4.204204209999999875e+04 6.941737662051698976e+01
4.214214219999999477e+04 -2.191898849798617732e+02
4.224224229999999807e+04 6.470416453982691962e+01
4.234234239999999409e+04 -6.725080250605083165e+01
4.244244249999999738e+04 8.030915996960005998e+01
4.254254259999999340e+04 6.719584885206236891e+01
4.264264269999999669e+04 9.095700656466895850e+01
4.274274279999999999e+04 -1.968514083530727703e+02
4.284284289999999601e+04 -6.507239065447178916e+01
4.294294299999999930e+04 -2.191204240474936427e+01
4.304304309999999532e+04 1.180856185364681181e+02
4.314314319999999861e+04 1.060211726357053834e+02
4.324324329999999463e+04 -2.836247843136235147e+01
4.334334339999999793e+04 1.502191194350052399e+02
4.344344349999999395e+04 5.500263983744881813e+01
4.354354359999999724e+04 5.105650753092257332e+01
4.364364369999999326e+04 -2.668218263258009060e+01
4.374374379999999655e+04 -5.901957185302363484e+01
4.384384389999999985e+04 6.607835264122176966e+01
4.394394399999999587e+04 -1.731089834166629089e+02
4.404404409999999916e+04 -4.769114486398708408e+01
4.414414419999999518e+04 3.348244107622893750e+01
4.424424429999999847e+04 -4.854874764287467670e+00
4.434434439999999449e+04 -7.883232438550325583e+01
4.444444449999999779e+04 2.211557611924171241e+01
4.454454459999999381e+04 1.972037456460124361e+02
4.464464469999999710e+04 1.092668336025984530e+02
4.474474479999999312e+04 -5.047527567140281946e+01
4.484484489999999641e+04 8.646451784267971163e+01
4.494494499999999971e+04 -9.925272209329362738e+01
4.504504509999999573e+04 1.501875366731581778e+02
4.514514519999999902e+04 -5.600727946375180011e+01
4.524524529999999504e+04 1.371472641790192029e+02
4.534534539999999834e+04 -1.093343651605228075e+02
4.544544549999999435e+04 5.381113107668652873e+01
4.554554559999999765e+04 -3.293750957426269110e+00
4.564564569999999367e+04 5.677175469607231406e+01
4.574574579999999696e+04 -5.736695576119386430e+01
4.584584589999999298e+04 5.285266790538091009e+00
4.594594599999999627e+04 -9.940820561795101185e+01
4.604604609999999957e+04 1.005365463068776961e+02
4.614614619999999559e+04 -6.258995889565877491e+01
4.624624629999999888e+04 -9.666049760712142813e+01
4.634634639999999490e+04 -1.511554324049673141e+02
4.644644649999999820e+04 1.396492208517165921e+02
4.654654659999999421e+04 2.707328455739558422e+02
4.664664669999999751e+04 -3.287551298998357652e+01
4.674674679999999353e+04 -1.251043090142421761e+02
4.684684689999999682e+04 -1.273630528578901355e+00
4.694694699999999284e+04 3.455080618930998071e+01
4.704704709999999614e+04 1.635821309243756332e+02
4.714714719999999943e+04 -7.969739345086519222e+01
4.724724729999999545e+04 -8.200895979327544438e+00
4.734734739999999874e+04 -1.002494650364392896e+02
4.744744749999999476e+04 2.296136907552534723e+01
4.754754759999999806e+04 1.860590480987151523e+02
4.764764769999999407e+04 7.155395584156214284e+01
4.774774779999999737e+04 1.436077866354649473e+02
4.784784789999999339e+04 2.412485114692329944e+02
4.794794799999999668e+04 1.763288817730761195e+02
4.804804809999999270e+04 -3.856563357628447619e+01
4.814814819999999600e+04 -1.512252094903304283e+02
4.824824829999999929e+04 -4.655667372010084648e+01
4.834834839999999531e+04 -8.780350504763582364e+01
4.844844849999999860e+04 -5.644972235788364934e+00
4.854854859999999462e+04 -7.548419765923215508e+00
4.864864869999999792e+04 1.409028944498606108e+02
4.874874879999999393e+04 1.681829216625643042e+01
4.884884889999999723e+04 1.616405630662559929e+02
4.894894899999999325e+04 5.216347956447510370e+01
4.904904909999999654e+04 1.635155385424790495e+02
4.914914919999999984e+04 8.276560922079222848e+01
4.924924929999999586e+04 1.445080527886773609e+02
4.934934939999999915e+04 1.009568269006986441e+02
4.944944949999999517e+04 -5.841892008969481687e+00
4.954954959999999846e+04 4.727686462912356546e+01
4.964964969999999448e+04 -2.480896113709342217e+02
4.974974979999999778e+04 -8.536311138199661741e+01
4.984984989999999380e+04 -2.259630290014707157e+02
4.994994999999999709e+04 -1.163118660200181687e+01
5.005005009999999311e+04 -1.612680747503817997e+02
5.015015019999999640e+04 5.579192007956697807e+01
5.025025029999999970e+04 6.606614643871617432e+01
5.035035039999999572e+04 7.984008171520299868e+01
5.045045049999999901e+04 2.384221369951973770e+02
5.055055059999999503e+04 -8.143802565943637717e+01
5.065065069999999832e+04 -6.563447385804845169e+01
5.075075079999999434e+04 -4.297429652942588518e+01
5.085085089999999764e+04 1.834695886068226116e+02
5.095095099999999366e+04 -3.707910515319259304e+01
5.105105109999999695e+04 8.206811529261572957e+01
5.115115119999999297e+04 -4.726862716999305825e+00
5.125125129999999626e+04 1.249748145448213599e+01
5.135135139999999956e+04 6.889900082665268322e+00
5.145145149999999558e+04 1.872331307016644359e+02
5.155155159999999887e+04 -6.644777636537958188e+01
5.165165169999999489e+04 5.156534618788059277e+01
5.175175179999999818e+04 1.704104082949870360e+02
5.185185189999999420e+04 1.608893077306269390e+02
5.195195199999999750e+04 -1.316821836393073575e+01
5.205205209999999352e+04 -1.054627126376912685e+02
5.215215219999999681e+04 -7.029430475500194575e+01
5.225225229999999283e+04 -1.498130941519907537e+02
5.235235239999999612e+04 -1.899508176889859001e+01
5.245245249999999942e+04 -1.583547970200180544e+01
5.255255259999999544e+04 4.829564307255051148e+01
5.265265269999999873e+04 -1.294942911726317050e+02
5.275275279999999475e+04 4.046062479282775115e+01
5.285285289999999804e+04 2.076917269890321549e+01
5.295295299999999406e+04 3.466937419840793666e+01
5.305305309999999736e+04 -3.374631702642333408e+01
5.315315319999999338e+04 1.638063120441020430e+02
5.325325329999999667e+04 5.066127483205269399e+00
5.335335339999999269e+04 2.225699211240429243e+00
5.345345349999999598e+04 -7.049574787477493487e+01
5.355355359999999928e+04 1.497360441710189036e+02
5.365365369999999530e+04 2.528589519932070218e+01
5.375375379999999859e+04 8.009071572163706776e+01
5.385385389999999461e+04 2.763470892813070279e+01
5.395395399999999790e+04 -8.300043294405308814e+01
5.405405409999999392e+04 -7.410008401618928531e+01
5.415415419999999722e+04 9.001762809476504401e+01
5.425425429999999324e+04 -6.709014705315502169e+01
5.435435439999999653e+04 -1.343725332724146142e+02
5.445445449999999983e+04 -5.224968137732909668e+01
5.455455459999999584e+04 5.145183384967750584e+01
5.465465469999999914e+04 2.432495604700876513e+01
5.475475479999999516e+04 -5.967670620046386887e+01
5.485485489999999845e+04 1.811658126263402835e+02
5.495495499999999447e+04 1.173631955415908266e+02
5.505505509999999776e+04 -1.673889972634344474e+02
5.515515519999999378e+04 9.579329013749152466e+01
5.525525529999999708e+04 -3.089732112427950028e+02
5.535535539999999310e+04 1.592402570182231747e+00
5.545545549999999639e+04 -3.527343476378889875e+01
5.555555559999999969e+04 -8.997778467495201937e+01
5.565565569999999570e+04 3.850250126756392888e+01
5.575575579999999900e+04 1.794156700165772804e+02
5.585585589999999502e+04 -2.805716070835004317e+01
5.595595599999999831e+04 8.005645882198697905e+01
5.605605609999999433e+04 9.883419014535922997e+01
5.615615619999999763e+04 1.382458664152406946e+01
5.625625629999999364e+04 1.439452705045606784e+01
5.635635639999999694e+04 2.052473911448013943e+00
5.645645649999999296e+04 -6.079515696305112016e+01
5.655655659999999625e+04 -6.318422724398985224e+01
5.665665669999999955e+04 -1.234515364134614686e+02
5.675675679999999556e+04 8.986165395947244861e+01
5.685685689999999886e+04 7.365869914015132736e+01
5.695695699999999488e+04 7.266370674608052127e+01
5.705705709999999817e+04 -1.350718075548823549e+02
5.715715719999999419e+04 -1.605208464579916949e+02
5.725725729999999749e+04 2.665129722062852835e+01
5.735735739999999350e+04 -5.103898714872590148e+01
5.745745749999999680e+04 2.024881208160992969e+02
5.755755759999999282e+04 -1.159793308543553394e+02
5.765765769999999611e+04 -2.399032794785791012e+01
5.775775779999999941e+04 -2.066198782320051066e+02
5.785785789999999542e+04 -6.605625366178585978e+00
5.795795799999999872e+04 3.691847092663854113e+01
5.805805809999999474e+04 5.419828809732922537e+01
5.815815819999999803e+04 9.127003633856850229e+01
5.825825829999999405e+04 -5.839000743672595206e+01
5.835835839999999735e+04 -6.719293735750740382e+01
5.845845849999999336e+04 1.634263720709785730e+02
5.855855859999999666e+04 -1.034772750450673442e+02
5.865865869999999268e+04 6.858342544244094086e+01
5.875875879999999597e+04 -2.000864399352861938e+02
5.885885889999999927e+04 4.348454530442403154e+01
5.895895899999999529e+04 5.890181907019624674e+01
5.905905909999999858e+04 -2.341586155852241191e+01
5.915915919999999460e+04 -3.121746999946071810e+01
5.925925929999999789e+04 2.719359289011291025e+02
5.935935939999999391e+04 7.455584977300590310e+01
5.945945949999999721e+04 -8.421065372716056174e+01
5.955955959999999322e+04 1.857027926829197639e+01
5.965965969999999652e+04 1.050948906059744985e+02
5.975975979999999254e+04 7.900066824647304031e+01
5.985985989999999583e+04 2.647791507305676717e+01
5.995995999999999913e+04 -3.091943124643496432e+01
6.006006009999999515e+04 -4.489154516486312474e+01
6.016016019999999844e+04 7.125893114122776240e+01
6.026026029999999446e+04 -9.754941630022152310e+01
6.036036039999999775e+04 -1.304334985680821148e+02
6.046046049999999377e+04 -1.991091791639823683e+01
6.056056059999999707e+04 5.290912608383032989e+01
6.066066069999999308e+04 1.603218011331403048e+01
6.076076079999999638e+04 5.433943293969726085e+01
6.086086089999999240e+04 6.191025691292072253e+01
6.096096099999999569e+04 1.045046032714616473e+02
6.106106109999999899e+04 1.125931209240385868e+02
6.116116119999999501e+04 1.652918903086525004e+00
6.126126129999999830e+04 -4.739896251509640024e+01
6.136136139999999432e+04 1.119142838394500785e+02
6.146146149999999761e+04 1.647977359504442063e+02
6.156156159999999363e+04 -1.196420336120941208e+01
6.166166169999999693e+04 1.890914986369792317e+01
6.176176179999999295e+04 -8.300091267161828767e+00
6.186186189999999624e+04 -5.969347122337250511e+01
6.196196199999999953e+04 2.851264683525613464e+01
6.206206209999999555e+04 8.340293510315144943e+01
6.216216219999999885e+04 7.841432211180176637e+01
6.226226229999999487e+04 1.713476731272193376e+02
6.236236239999999816e+04 4.287290646074765021e+01
6.246246249999999418e+04 -2.889672381364218978e+01
6.256256259999999747e+04 8.756984668592938448e+00
6.266266269999999349e+04 -7.244518204139617978e+01
6.276276279999999679e+04 -6.341001940581328000e+01
6.286286289999999281e+04 8.425606494923351875e+01
6.296296299999999610e+04 4.321168333008679419e+00
6.306306309999999939e+04 5.234986855048119025e+01
6.316316319999999541e+04 -1.085835574086445092e+02
6.326326329999999871e+04 -1.288370759584847178e+02
6.336336339999999473e+04 -1.558025302035605186e+01
6.346346349999999802e+04 5.173070782385246247e+01
6.356356359999999404e+04 2.793146027710445196e+02
6.366366369999999733e+04 1.940020268552780465e+02
6.376376379999999335e+04 9.732623447535907246e+01
6.386386389999999665e+04 -4.205797252257931262e+01
6.396396399999999267e+04 3.441170859924903169e+01
6.406406409999999596e+04 3.030704514981289321e+01
6.416416419999999925e+04 -1.248481750765507314e+02
6.426426429999999527e+04 -1.387625682493662964e+02
6.436436439999999857e+04 -7.048704015659690469e+01
6.446446449999999459e+04 -1.418152831985789533e+02
6.456456459999999788e+04 1.722857708005571808e+00
6.466466469999999390e+04 -1.732919584962481352e+01
6.476476479999999719e+04 -1.988244382464330045e+02
6.486486489999999321e+04 -5.022964198661973079e+00
6.496496499999999651e+04 7.418597792264951352e+01
6.506506509999999253e+04 -3.742187446039844900e+01
6.516516519999999582e+04 1.162543621734934902e+02
6.526526529999999912e+04 1.294584773407425189e+02
6.536536539999999513e+04 2.036468580671600250e+02
6.546546549999999843e+04 2.315089449370216546e+00
6.556556560000000172e+04 -1.062184479146036153e+02
6.566566569999999774e+04 6.519589213898443347e+01
6.576576580000000831e+04 5.206166127477328587e+01
6.586586590000000433e+04 -6.654914275357802467e+01
6.596596600000000035e+04 -2.972822428905873693e+01
6.606606609999999637e+04 1.289544488445191064e+02
6.616616620000000694e+04 -6.666722181691496019e+01
6.626626630000000296e+04 -5.288355511939681719e+01
6.636636639999999898e+04 -6.811351149409287586e+01
6.646646650000000955e+04 -2.083808940066242030e+02
6.656656660000000556e+04 1.220879853301129003e+01
6.666666670000000158e+04 2.943956555482169435e+01
6.676676679999999760e+04 3.015675490799819158e+01
6.686686690000000817e+04 -1.595894483395466921e+02
6.696696700000000419e+04 -1.049094939741546284e+02
6.706706710000000021e+04 -1.071431659032243289e+02
6.716716719999999623e+04 -1.138236949779117424e+02
6.726726730000000680e+04 7.912302574543370781e+01
6.736736740000000282e+04 2.045537620722882721e+01
6.746746749999999884e+04 8.443238903080451507e+01
6.756756760000000941e+04 1.149775264747106718e+02
6.766766770000000542e+04 1.803182790150979642e+01
6.776776780000000144e+04 -1.883189309554360875e+02
6.786786789999999746e+04 3.626004385163098220e+01
6.796796800000000803e+04 5.824943841284270007e+00
6.806806810000000405e+04 3.714078613810675478e+01
6.816816820000000007e+04 -1.046208677273973535e+02
6.826826829999999609e+04 -2.393278509546091470e+02
6.836836840000000666e+04 -2.782694862945285053e+01
6.846846850000000268e+04 1.904311741838778289e+02
6.856856859999999870e+04 1.403871111556610174e+02
6.866866870000000927e+04 5.394406079415689703e+01
6.876876880000000529e+04 4.429800438637335702e+01
6.886886890000000130e+04 -5.488679384813267603e+01
6.896896899999999732e+04 1.004880190438438348e+02
6.906906910000000789e+04 -2.140000980525147511e+01
6.916916920000000391e+04 1.734173871116740484e+00
6.926926929999999993e+04 -2.943260467251022661e+01
6.936936939999999595e+04 -1.340345265777978909e+02
6.946946950000000652e+04 -1.739678943309879173e+02
6.956956960000000254e+04 -9.597018208728347588e+01
6.966966969999999856e+04 1.543661425435425016e+01
6.976976980000000913e+04 -3.132452292427203702e+02
6.986986990000000515e+04 -1.498191999849020704e+02
6.996997000000000116e+04 -1.080704074886032373e+02
7.007007009999999718e+04 1.779365414645846499e+02
7.017017020000000775e+04 1.031547151248586118e+02
7.027027030000000377e+04 -2.202255509365546118e+02
7.037037039999999979e+04 2.626968281838231789e+01
7.047047049999999581e+04 -1.892493474015428774e+02
7.057057060000000638e+04 -6.457071923023639215e+01
7.067067070000000240e+04 5.777017617667537763e+01
7.077077079999999842e+04 1.934284827682653329e+01
7.087087090000000899e+04 1.915403756976733121e+02
7.097097100000000501e+04 -1.249127939346804936e+02
7.107107110000000102e+04 5.208248635207988997e+01
7.117117119999999704e+04 -5.793245722001299214e+01
7.127127130000000761e+04 3.743942210674732962e+01
7.137137140000000363e+04 -1.255187486100267051e+02
7.147147149999999965e+04 -5.823565002084434639e+01
7.157157160000001022e+04 4.270834635294838222e+01
7.167167170000000624e+04 8.288163233303974664e+01
7.177177180000000226e+04 -1.473021242150765033e+02
7.187187189999999828e+04 -1.049973918186492483e+02
7.197197200000000885e+04 5.158563630502072073e+01
7.207207210000000487e+04 -9.536504409599876908e+01
7.217217220000000088e+04 -3.074968860330318989e+02
7.227227229999999690e+04 -1.255203867991552897e+02
7.237237240000000747e+04 -1.960050354686268292e+02
7.247247250000000349e+04 1.074060551666889580e+02
7.257257259999999951e+04 -3.348739525763831182e+01
7.267267270000001008e+04 -3.191488357597328474e+01
7.277277280000000610e+04 1.584386355320069413e+02
7.287287290000000212e+04 1.534546372123647870e+02
7.297297299999999814e+04 1.200481137487243899e+02
7.307307310000000871e+04 -2.667893043804593844e+01
7.317317320000000473e+04 -1.004090500218386239e+02
7.327327330000000075e+04 1.377659990763391917e+01
7.337337339999999676e+04 -2.609318233782005905e+02
7.347347350000000733e+04 4.132386634191939123e+01
7.357357360000000335e+04 7.307524199958952238e+01
7.367367369999999937e+04 -1.871987783633209901e+01
7.377377380000000994e+04 6.439540597584043269e+01
7.387387390000000596e+04 -3.603020176786734918e+00
7.397397400000000198e+04 4.726793222197576938e+01
7.407407409999999800e+04 -9.601648895056949584e+01
7.417417420000000857e+04 -4.342807299929265952e+01
7.427427430000000459e+04 8.946096548469002130e+01
7.437437440000000061e+04 -1.013502177718585244e+02
7.447447449999999662e+04 -6.244668298436096876e+01
7.457457460000000719e+04 -9.692035363169540574e+01
7.467467470000000321e+04 1.878043537696548810e+02
7.477477479999999923e+04 -1.138885468603578133e+01
7.487487490000000980e+04 -2.533746425837733227e+02
7.497497500000000582e+04 2.202284065303024008e+01
7.507507510000000184e+04 6.494206182619194578e+01
7.517517519999999786e+04 9.312962601871225843e+01
7.527527530000000843e+04 1.338275235734845658e+01
7.537537540000000445e+04 -1.400190302502517739e+02
7.547547550000000047e+04 1.276768201732040069e+02
7.557557559999999648e+04 -5.370015914816735858e+01
7.567567570000000705e+04 -1.561740945692989726e+02
7.577577580000000307e+04 1.986704384368273679e+01
7.587587589999999909e+04 -1.066419964771876323e+02
7.597597600000000966e+04 -4.269468696462090662e+01
7.607607610000000568e+04 -1.170745062390817459e+01
7.617617620000000170e+04 -9.580624268474764449e+01
7.627627629999999772e+04 -4.208275729160348533e+00
7.637637640000000829e+04 -3.482543414248075919e+01
7.647647650000000431e+04 7.093444695095260499e+01
7.657657660000000033e+04 -9.387792960131019981e+01
7.667667669999999634e+04 -1.527389710703422452e+02
7.677677680000000692e+04 6.676138057694140571e+01
7.687687690000000293e+04 -1.317202135104184606e+02
7.697697699999999895e+04 -6.802923682999291088e+01
7.707707710000000952e+04 -1.108395587606087815e+02
7.717717720000000554e+04 1.869779621016535609e+00
7.727727730000000156e+04 -1.633894325840466877e+02
7.737737739999999758e+04 -7.382428439777045526e+01
7.747747750000000815e+04 1.542059615904105208e+01
7.757757760000000417e+04 1.246696740710623317e+02
7.767767770000000019e+04 1.624670246734310695e+02
7.777777779999999620e+04 2.034008312853101685e+01
7.787787790000000678e+04 4.799779053065026346e+01
7.797797800000000279e+04 1.341005746061689763e+02
7.807807809999999881e+04 5.528285636918740664e+01
7.817817820000000938e+04 -5.615566149791191464e+01
7.827827830000000540e+04 -3.867600320013360715e+01
7.837837840000000142e+04 -5.700321414163666001e-01
7.847847849999999744e+04 1.963951927602635550e+01
7.857857860000000801e+04 1.992596208411971759e+01
7.867867870000000403e+04 -6.095894783389866944e+01
7.877877880000000005e+04 4.553291103306961674e+01
7.887887889999999607e+04 -2.177477447690550889e+02
7.897897900000000664e+04 5.277292480452086210e+01
7.907907910000000265e+04 -1.725345542652698327e+02
7.917917919999999867e+04 -3.512282887974470214e+01
7.927927930000000924e+04 2.160538196870551531e+01
7.937937940000000526e+04 -1.157157751285444505e+02
7.947947950000000128e+04 2.652543897018117036e+01
7.957957959999999730e+04 -8.850585937058278319e+01
7.967967970000000787e+04 8.445530101998512862e+01
7.977977980000000389e+04 -7.541423101029256770e+01
7.987987989999999991e+04 -2.031254849678463259e+01
7.997997999999999593e+04 -5.770288430558660764e+01
8.008008010000000650e+04 8.252460715826494209e+00
8.018018020000000251e+04 3.372754578600115849e+01
8.028028029999999853e+04 2.773671332204557416e+01
8.038038040000000910e+04 -4.075639585430369749e+01
8.048048050000000512e+04 5.441472249329818212e+00
8.058058060000000114e+04 1.881030076414150756e+02
8.068068069999999716e+04 -1.363431214762860861e+02
8.078078080000000773e+04 -7.923276205971038166e+01
8.088088090000000375e+04 1.495822545715381295e+02
8.098098099999999977e+04 -8.237689439101015410e+01
8.108108109999999579e+04 -2.371496314315977116e+01
8.118118120000000636e+04 -1.133808007840816146e+02
8.128128130000000237e+04 -7.616206772120833079e+01
8.138138139999999839e+04 1.784739923869167555e+01
8.148148150000000896e+04 -2.795582448995083524e+01
8.158158160000000498e+04 -2.289833343080741601e-01
8.168168170000000100e+04 1.182549088592242192e+01
8.178178179999999702e+04 -1.734892894050929897e+02
8.188188190000000759e+04 1.184228943667311853e+02
8.198198200000000361e+04 1.400856136753723113e+01
8.208208209999999963e+04 -8.029988131895426307e+01
8.218218219999999565e+04 -6.909949912430306540e+01
8.228228230000000622e+04 -2.486072358496311097e+01
8.238238240000000224e+04 5.138836861364804776e+01
8.248248249999999825e+04 -1.103607780409939494e+02
8.258258260000000882e+04 -6.120076168999109001e+00
8.268268270000000484e+04 6.546972983913834199e+00
8.278278280000000086e+04 -5.658885495647552943e+01
8.288288289999999688e+04 -7.432655858010215866e+01
8.298298300000000745e+04 -1.138231791661045662e+02
8.308308310000000347e+04 -1.319512699883397033e+02
8.318318319999999949e+04 5.278138359508217547e+01
8.328328330000001006e+04 -7.351701753974049680e+00
8.338338340000000608e+04 2.000487968977614628e+02
8.348348350000000210e+04 1.943774795409276805e+02
8.358358359999999811e+04 -1.131383276324294798e+02
8.368368370000000868e+04 -1.584869392868907880e+02
8.378378380000000470e+04 -7.725551806263030130e+01
8.388388390000000072e+04 3.119350712999515096e+01
8.398398399999999674e+04 1.137240277134677200e+02
8.408408410000000731e+04 -1.116650336230332030e+01
8.418418420000000333e+04 -1.128602540906702387e+02
8.428428429999999935e+04 1.853046349386701763e+01
8.438438440000000992e+04 -6.016096134128133599e+01
8.448448450000000594e+04 1.205917019237406294e+02
8.458458460000000196e+04 1.590139192845711023e+02
8.468468469999999797e+04 9.386852905204088415e+01
8.478478480000000854e+04 2.329346231821939561e+00
8.488488490000000456e+04 -1.037246781176474570e+02
8.498498500000000058e+04 1.879555003750201649e+02
8.508508509999999660e+04 5.732137657732035763e+01
8.518518520000000717e+04 7.048503110037118802e+01
8.528528530000000319e+04 2.338384613042051683e+02
8.538538539999999921e+04 -1.581048930302385003e+01
8.548548550000000978e+04 1.052666944893297085e+02
8.558558560000000580e+04 -9.173623908905437929e+01
8.568568570000000182e+04 -9.436406752976685652e+01
8.578578579999999783e+04 -7.238496907288352133e+01
8.588588590000000841e+04 1.479018359022074378e+02
8.598598600000000442e+04 -9.129117522054568212e+01
8.608608610000000044e+04 1.366985614027570648e+02
8.618618619999999646e+04 1.630379285246971790e+02
8.628628630000000703e+04 1.755528167047964772e+01
8.638638640000000305e+04 1.170802366889465596e+01
8.648648649999999907e+04 1.511171908861740576e+02
8.658658660000000964e+04 1.486679508615466716e+02
8.668668670000000566e+04 1.586105216044626509e+00
8.678678680000000168e+04 1.247479246597892768e+02
8.688688689999999769e+04 -4.800368180483542346e+01
8.698698700000000827e+04 1.090243353311628312e+02
8.708708710000000428e+04 1.732971564856468971e+00
8.718718720000000030e+04 -9.670228068953748846e+01
8.728728729999999632e+04 -1.657468899862857370e+02
8.738738740000000689e+04 -1.928772928040539796e+02
8.748748750000000291e+04 9.025939442812897084e+01
8.758758759999999893e+04 1.767246831088513437e+00
8.768768770000000950e+04 -6.774300069078560860e+00
8.778778780000000552e+04 2.879476564278450468e+01
8.788788790000000154e+04 1.230072658412047133e+02
8.798798799999999756e+04 -6.062015327260371578e+01
8.808808810000000813e+04 2.949763661517940250e+01
8.818818820000000414e+04 1.757446146716821644e+01
8.828828830000000016e+04 1.299346480425094512e+02
8.838838839999999618e+04 1.251661049628354760e+01
8.848848850000000675e+04 -4.452100018969126438e+01
8.858858860000000277e+04 4.948955938636989060e+01
8.868868869999999879e+04 1.042794205571110382e+02
8.878878880000000936e+04 1.175592581356274167e+02
8.888888890000000538e+04 -1.503901490642491012e+01
8.898898900000000140e+04 1.324039758052538787e+02
8.908908909999999742e+04 -2.013887122800998100e+02
8.918918920000000799e+04 3.491036090326918639e+01
8.928928930000000400e+04 -4.036242095462513646e+01
8.938938940000000002e+04 -3.158003491506027416e+01
8.948948949999999604e+04 8.909535677261560238e+01
8.958958960000000661e+04 -2.868249485846684621e+01
8.968968970000000263e+04 1.215453857502129438e+02
8.978978979999999865e+04 -9.763438318554899809e+01
8.988988990000000922e+04 1.095378883318100236e+02
8.998999000000000524e+04 -1.208876644369954505e+02
9.009009010000000126e+04 -6.907423660498288598e+01
9.019019019999999728e+04 1.632269624631503291e+02
9.029029030000000785e+04 7.234777021059414892e+01
9.039039040000000386e+04 -1.892864804299619408e+01
9.049049049999999988e+04 -8.576209856533414211e+01
9.059059059999999590e+04 1.235627236623362961e+02
9.069069070000000647e+04 -5.485956930683075683e+01
9.079079080000000249e+04 2.903081672274744207e+01
9.089089089999999851e+04 -2.021085588762404370e+02
9.099099100000000908e+04 1.149936126820992399e+02
9.109109110000000510e+04 -7.993997659725489768e+01
9.119119120000000112e+04 -2.316301254267368748e+01
9.129129129999999714e+04 6.002836822971703157e+01
9.139139140000000771e+04 -1.688428682235722889e+01
9.149149150000000373e+04 -1.824293841538137784e+01
9.159159159999999974e+04 1.156225989577477975e+01
9.169169169999999576e+04 -5.932436939816652455e+01
9.179179180000000633e+04 4.967016467496753762e+01
9.189189190000000235e+04 -8.570509731554682276e+01
9.199199199999999837e+04 2.264612181731652996e+01
9.209209210000000894e+04 4.423932362666301543e+01
9.219219220000000496e+04 5.763475204721618894e+00
9.229229230000000098e+04 -6.537130106944646002e+01
9.239239239999999700e+04 9.862468983032690062e+01
9.249249250000000757e+04 -5.145087648756546628e+01
9.259259260000000359e+04 -4.835355254563354777e+01
9.269269269999999960e+04 -2.094021747553838608e+01
9.279279279999999562e+04 -5.890651821877342265e+00
9.289289290000000619e+04 -8.121508962651686758e+00
9.299299300000000221e+04 -1.095835737018662854e+02
9.309309309999999823e+04 -9.576139730433983033e+00
9.319319320000000880e+04 7.578395851129464234e+01
9.329329330000000482e+04 1.189035016897109358e+02
9.339339340000000084e+04 1.062688853269622200e+02
9.349349349999999686e+04 -1.230983388940922119e+01
9.359359360000000743e+04 1.793838768676653785e+02
9.369369370000000345e+04 -5.789583697531573847e+01
9.379379379999999946e+04 -3.167189120033763317e+01
9.389389389999999548e+04 -1.308434642663600300e+02
9.399399400000000605e+04 8.215135542072347619e+01
9.409409410000000207e+04 4.499887606917180705e+01
9.419419419999999809e+04 4.531782038332927698e+00
9.429429430000000866e+04 5.195256119719159216e+01
9.439439440000000468e+04 1.843064780215630805e+01
9.449449450000000070e+04 1.127529889126653444e+02
9.459459459999999672e+04 3.642372793955770760e+01
9.469469470000000729e+04 -1.449879881506715549e+02
9.479479480000000331e+04 -3.105226048540610861e+01
9.489489489999999932e+04 7.289859452120238359e+01
9.499499499999999534e+04 -9.176710178803108420e+01
9.509509510000000591e+04 3.225247223451474810e+01
9.519519520000000193e+04 -4.591918961813639122e+00
9.529529529999999795e+04 1.555193992173913955e+02
9.539539540000000852e+04 8.862155389699843511e+01
9.549549550000000454e+04 -1.024867924547903613e+02
9.559559560000000056e+04 8.203797058394441422e+01
9.569569569999999658e+04 -2.056951655150653551e+02
9.579579580000000715e+04 1.536799198028313924e+02
9.589589590000000317e+04 -4.296375506905194896e+01
9.599599599999999919e+04 3.054554437155448454e+01
9.609609609999999520e+04 9.120223978068548831e+01
9.619619620000000577e+04 -6.461670244439061150e+01
9.629629630000000179e+04 2.153427617476885700e+02
9.639639639999999781e+04 4.926977060278839815e+01
9.649649650000000838e+04 -6.723071451201947468e+01
9.659659660000000440e+04 -6.166785875331475353e+01
9.669669670000000042e+04 7.928103420916667687e+01
9.679679679999999644e+04 8.463128520252017495e+01
9.689689690000000701e+04 3.678756755560537783e+01
9.699699700000000303e+04 1.311021225649849953e+02
9.709709709999999905e+04 6.175635238311769637e-01
9.719719720000000962e+04 3.552798177673067670e+01
9.729729730000000563e+04 2.318154358153314263e+02
9.739739740000000165e+04 1.207441212246254736e+02
9.749749749999999767e+04 1.237419447906856078e+02
9.759759760000000824e+04 1.517554921460605044e+02
9.769769770000000426e+04 6.013147925923300363e+01
9.779779780000000028e+04 1.075759988002248058e+01
9.789789789999999630e+04 -5.983101116791639384e+01
9.799799800000000687e+04 5.678281105365360304e+01
9.809809810000000289e+04 -6.051199813963988561e+01
9.819819819999999891e+04 6.423886264775082111e+01
9.829829830000000948e+04 -2.260410729911164296e+01
9.839839840000000549e+04 1.576608288249546206e+02
9.849849850000000151e+04 1.531575089350101138e+01
9.859859859999999753e+04 -4.610788324283241479e+01
9.869869870000000810e+04 8.067575747704886169e+01
9.879879880000000412e+04 -9.935823940034134694e+01
9.889889890000000014e+04 1.068880238076876452e+02
9.899899899999999616e+04 -2.555376338160639023e+02
9.909909910000000673e+04 -1.066560628914924962e+02
9.919919920000000275e+04 -6.688418070857369457e+01
9.929929929999999877e+04 -5.463988772728206555e+01
9.939939940000000934e+04 1.323215054824300125e+02
9.949949950000000536e+04 -2.069695805603059569e+01
9.959959960000000137e+04 7.262613596125642346e+01
9.969969969999999739e+04 -6.944606491767899570e+01
9.979979980000000796e+04 -3.858883127103634791e+01
9.989989990000000398e+04 2.300717398881842257e+01
1.000000000000000000e+05 -1.635942741601777684e+01
