T / °C  U / V
160.4   0.273
164.1   0.2737
168.2   0.2745
172.4   0.2755
176.4   0.2763
180.6   0.2772
185.3   0.2782
190.3   0.2792
194.4   0.2801
200.1   0.2819
205.2   0.2821
210.4   0.2828
215.1   0.2836
220.2   0.2844
225.4   0.2851
230     0.2858
234.8   0.2865
240     0.2872
245.1   0.2881
250.1   0.2888
255.1   0.2896
260.2   0.2904