DP DT
BAR K
-0.100 -0.004
-0.299 -0.199
-0.500 -0.430
-0.706 -0.682
-0.901 -0.928
-1.101 -1.125
-1.302 -1.323
-1.501 -1.495
-1.700 -1.727
-1.500 -1.542
-1.299 -1.339
-1.101 -1.169
-0.901 -0.986
-0.701 -0.746
-0.501 -0.554
-0.296 -0.362
-0.098 -0.267