DP DT
BAR K
-0.101 0.002
-0.300 -0.205
-0.501 -0.464
-0.702 -0.753
-0.902 -1.028
-1.103 -1.245
-1.304 -1.474
-1.500 -1.725
-1.700 -2.000
-1.501 -1.763
-1.300 -1.505
-1.101 -1.271
-0.903 -1.062
-0.700 -0.800
-0.499 -0.530
-0.303 -0.286
-0.100 -0.130
