DP	DT
BAR	K
-0.086 -0.014
-0.309 -0.122
-0.502 -0.166
-0.712 -0.304
-0.910 -0.524
-1.110 -0.882
-1.299 -1.186
-1.518 -1.514
-1.710 -1.712
-1.499 -1.470
-1.292 -1.156
-1.095 -0.872
-0.883 -0.480
-0.712 -0.266
-0.492 0.016
-0.281 0.260
-0.087 0.606