DP DT
BAR K
-0.092 -0.002
-0.297 -0.009
-0.501 -0.023
-0.704 -0.053
-0.904 -0.091
-1.100 -0.138
-1.306 -0.183
-1.501 -0.217
-1.704 -0.245
-1.502 -0.228
-1.300 -0.191
-1.098 -0.148
-0.906 -0.108
-0.700 -0.067
-0.504 -0.034
-0.306 -0.020
-0.101 0.008