DP	DT
BAR	K
-0.083	-0.011
-0.299	-0.144
-0.500	-0.212
-0.698	-0.254
-0.889	-0.387
-1.104	-0.462
-1.303	-0.529
-1.511	-0.585
-1.700	-0.584
-1.517	-0.603
-1.298	-0.582
-1.112	-0.573
-0.916	-0.522
-0.711	-0.502
-0.508	-0.463
-0.313	-0.450
-0.108	-0.423