DP DT
BAR K
-0.100 0.003
-0.303 -0.008
-0.501 -0.043
-0.706 -0.074
-0.901 -0.103
-1.100 -0.132
-1.301 -0.169
-1.500 -0.209
-1.701 -0.255
-1.503 -0.224
-1.302 -0.196
-1.101 -0.161
-0.901 -0.128
-0.700 -0.099
-0.500 -0.080
-0.300 -0.059
-0.100 -0.052