DP	DT
BAR	K
-0.084 0.001
-0.298 -0.126
-0.496 -0.276
-0.717 -0.484
-0.904 -0.659
-1.107 -0.807
-1.294 -0.955
-1.498 -1.076
-1.693 -1.259
-1.511 -1.138
-1.297 -0.984
-1.101 -0.850
-0.904 -0.712
-0.698 -0.534
-0.495 -0.386
-0.296 -0.226
-0.104 -0.125