1.000000000000000048e-04 8.608771794861009141e+01
1.001002000000000010e+02 1.085145965031120596e+02
2.002002999999999986e+02 2.074893364408119396e+02
3.003003999999999678e+02 3.953157210983878826e+02
4.004004999999999654e+02 5.788890575976993205e+02
5.005005999999999631e+02 6.496167142812789734e+02
6.006006999999999607e+02 7.981398190508500647e+02
7.007007999999999583e+02 7.570070072657923674e+02
8.008008999999999560e+02 8.294123498833005215e+02
9.009009999999999536e+02 8.741012861994174727e+02
1.001001099999999951e+03 8.270175536288322746e+02
1.101101199999999835e+03 1.023497574007270146e+03
1.201201299999999947e+03 1.296923251673368213e+03
1.301301400000000058e+03 1.243007905429686616e+03
1.401401499999999942e+03 1.331307722608825088e+03
1.501501599999999826e+03 1.339919161940019876e+03
1.601601699999999937e+03 1.505428828897775020e+03
1.701701800000000048e+03 1.744598301147350412e+03
1.801801899999999932e+03 1.891426744797714491e+03
1.901901999999999816e+03 1.684855242753528501e+03
2.002002099999999928e+03 1.792771606277757428e+03
2.102102200000000266e+03 2.098150522308648306e+03
2.202202299999999923e+03 2.093306964887335198e+03
2.302302400000000034e+03 2.184327252128428427e+03
2.402402500000000146e+03 2.226900086478633057e+03
2.502502600000000257e+03 2.156759821494159041e+03
2.602602700000000368e+03 2.579569997673863782e+03
2.702702800000000025e+03 2.544863970770671585e+03
2.802802900000000136e+03 2.453610920956523842e+03
2.902903000000000247e+03 2.577611508685946319e+03
3.003003099999999904e+03 2.792497112126961838e+03
3.103103200000000015e+03 2.805321371827028088e+03
3.203203300000000127e+03 2.874952038859096774e+03
3.303303400000000238e+03 2.812672636975666137e+03
3.403403500000000349e+03 2.985258671021788814e+03
3.503503600000000006e+03 2.853926691357546588e+03
3.603603700000000117e+03 3.067258404513282130e+03
3.703703800000000228e+03 3.106550393882501339e+03
3.803803899999999885e+03 3.271959632101829811e+03
3.903903999999999996e+03 3.294908634787114806e+03
4.004004100000000108e+03 3.392776101244212441e+03
4.104104199999999764e+03 3.452330226931870129e+03
4.204204300000000330e+03 3.460067890492812239e+03
4.304304399999999987e+03 3.483796585939019224e+03
4.404404499999999643e+03 3.504497955081224973e+03
4.504504600000000210e+03 3.415386729730359093e+03
4.604604699999999866e+03 3.650475161493408450e+03
4.704704800000000432e+03 3.632481200938055281e+03
4.804804900000000089e+03 3.907719566185373424e+03
4.904904999999999745e+03 3.786498024990162321e+03
5.005005100000000311e+03 3.972745691484763483e+03
5.105105199999999968e+03 3.899892097708685469e+03
5.205205300000000534e+03 3.866790456794426063e+03
5.305305400000000191e+03 3.948165409012217424e+03
5.405405499999999847e+03 3.935182026821587897e+03
5.505505600000000413e+03 4.034480320688243864e+03
5.605605700000000070e+03 3.829277439828753813e+03
5.705705799999999726e+03 3.897090756600012810e+03
5.805805900000000292e+03 3.828567820441848653e+03
5.905905999999999949e+03 4.106611561467515457e+03
6.006006099999999606e+03 3.913155225083212372e+03
6.106106200000000172e+03 3.999388095205497848e+03
6.206206299999999828e+03 3.886033007392135460e+03
6.306306400000000394e+03 3.978508708208431017e+03
6.406406500000000051e+03 3.932542226392995417e+03
6.506506599999999708e+03 4.060476882757547628e+03
6.606606700000000274e+03 3.976491986327066570e+03
6.706706799999999930e+03 4.058915019473892244e+03
6.806806900000000496e+03 3.924834920385368605e+03
6.906907000000000153e+03 3.937518169579139794e+03
7.007007099999999809e+03 3.997188751592322660e+03
7.107107200000000375e+03 3.974108868692710530e+03
7.207207300000000032e+03 3.865863672685026813e+03
7.307307399999999689e+03 3.757212950754185385e+03
7.407407500000000255e+03 4.018027333717353486e+03
7.507507599999999911e+03 3.981177289323505647e+03
7.607607699999999568e+03 3.987462499658550769e+03
7.707707800000000134e+03 3.859564906630656424e+03
7.807807899999999790e+03 3.946334445404087546e+03
7.907908000000000357e+03 3.888975632953104196e+03
8.008008100000000013e+03 3.990933500635581368e+03
8.108108199999999670e+03 3.890277723169372621e+03
8.208208299999998417e+03 3.826822220342452511e+03
8.308308399999999892e+03 3.908128526486425471e+03
8.408408499999999549e+03 3.725984121983583464e+03
8.508508599999999205e+03 3.908161108638500991e+03
8.608608699999998862e+03 3.712379587366576743e+03
8.708708799999998519e+03 3.778294216295700608e+03
8.808808899999998175e+03 3.687836087309003233e+03
8.908908999999999651e+03 3.786252337769878523e+03
9.009009099999999307e+03 3.497612695616294332e+03
9.109109199999998964e+03 3.519369962235344246e+03
9.209209299999998620e+03 3.512968488202716344e+03
9.309309399999998277e+03 3.576603098249583127e+03
9.409409499999999753e+03 3.444460413220299870e+03
9.509509599999999409e+03 3.353419003895319292e+03
9.609609699999999066e+03 3.390393997503022092e+03
9.709709799999998722e+03 3.221633474701890918e+03
9.809809899999998379e+03 3.514841684321596858e+03
9.909909999999999854e+03 3.171850908673196500e+03
1.001001009999999951e+04 3.241485327654121193e+03
1.011011019999999917e+04 3.114564495666967105e+03
1.021021029999999882e+04 3.081465754152586669e+03
1.031031039999999848e+04 2.964234075421421949e+03
1.041041049999999996e+04 2.875969784564035308e+03
1.051051059999999961e+04 3.110414254370155504e+03
1.061061069999999927e+04 2.845858170004159092e+03
1.071071079999999893e+04 2.832391712106028081e+03
1.081081089999999858e+04 3.001226888952051922e+03
1.091091099999999824e+04 2.787336887791208028e+03
1.101101109999999971e+04 2.744044455348021984e+03
1.111111119999999937e+04 2.650483934519834747e+03
1.121121129999999903e+04 2.713222106261245244e+03
1.131131139999999868e+04 2.667394866081653163e+03
1.141141149999999834e+04 2.471395499185854533e+03
1.151151159999999982e+04 2.533870056509339520e+03
1.161161169999999947e+04 2.448863557797053545e+03
1.171171179999999913e+04 2.537698359271352274e+03
1.181181189999999879e+04 2.244069325285443938e+03
1.191191199999999844e+04 2.283516275125700759e+03
1.201201209999999810e+04 2.435203827212094438e+03
1.211211219999999958e+04 2.369087535017160917e+03
1.221221229999999923e+04 2.229320147269319477e+03
1.231231239999999889e+04 2.239700124440291802e+03
1.241241249999999854e+04 2.154950287674661013e+03
1.251251259999999820e+04 2.054281828175253395e+03
1.261261269999999968e+04 2.180824950199736577e+03
1.271271279999999933e+04 2.093363621795997460e+03
1.281281289999999899e+04 1.919070490594024932e+03
1.291291299999999865e+04 1.824171841613166180e+03
1.301301309999999830e+04 1.791392297363810030e+03
1.311311319999999978e+04 1.790174798776628450e+03
1.321321329999999944e+04 1.828787827247995210e+03
1.331331339999999909e+04 1.727454599748286000e+03
1.341341349999999875e+04 1.685535557612841330e+03
1.351351359999999841e+04 1.702752227403241704e+03
1.361361369999999988e+04 1.742034214214809026e+03
1.371371379999999954e+04 1.592104613972309835e+03
1.381381389999999919e+04 1.620515731434411691e+03
1.391391399999999885e+04 1.644810488870067275e+03
1.401401409999999851e+04 1.420005712076917234e+03
1.411411419999999816e+04 1.155329037491004783e+03
1.421421429999999964e+04 1.613855954611683728e+03
1.431431439999999930e+04 1.364229883128478377e+03
1.441441449999999895e+04 1.303444841165935941e+03
1.451451459999999861e+04 1.241104627348542635e+03
1.461461469999999827e+04 1.252467995070907818e+03
1.471471479999999974e+04 1.252218296133693229e+03
1.481481489999999940e+04 1.212582133805015246e+03
1.491491499999999905e+04 1.138390155125176307e+03
1.501501509999999871e+04 1.188317834206882708e+03
1.511511519999999837e+04 1.102649445394457871e+03
1.521521529999999802e+04 1.088160752537577764e+03
1.531531539999999950e+04 1.065319880525816188e+03
1.541541549999999916e+04 1.074725182573182110e+03
1.551551559999999881e+04 1.023266874617172448e+03
1.561561569999999847e+04 1.000922870524634732e+03
1.571571579999999813e+04 8.493524284567724862e+02
1.581581589999999960e+04 8.434076343518053136e+02
1.591591599999999926e+04 9.060128130040640144e+02
1.601601609999999891e+04 8.711687875420856244e+02
1.611611619999999857e+04 8.428185897277652430e+02
1.621621629999999823e+04 8.263901505946927273e+02
1.631631639999999970e+04 7.494854592803944797e+02
1.641641649999999936e+04 5.746588281654679804e+02
1.651651659999999902e+04 6.648870657410551530e+02
1.661661670000000231e+04 8.256099859876335358e+02
1.671671680000000197e+04 5.571725630619330332e+02
1.681681690000000162e+04 6.495385375051223491e+02
1.691691700000000128e+04 6.777021149630454602e+02
1.701701710000000094e+04 6.654969411420864844e+02
1.711711720000000059e+04 7.068067287642786596e+02
1.721721730000000025e+04 6.035076751585519332e+02
1.731731739999999991e+04 5.396444490111182404e+02
1.741741749999999956e+04 5.423731628362279480e+02
1.751751759999999922e+04 6.348900313555202501e+02
1.761761769999999888e+04 6.244034234343466778e+02
1.771771780000000217e+04 5.301984443230610395e+02
1.781781790000000183e+04 5.843020895667801824e+02
1.791791800000000148e+04 4.789749015372693748e+02
1.801801810000000114e+04 4.079257692067107541e+02
1.811811820000000080e+04 4.355128735729845744e+02
1.821821830000000045e+04 3.745217292267851690e+02
1.831831840000000011e+04 2.980765642987907427e+02
1.841841849999999977e+04 3.932435698090733922e+02
1.851851859999999942e+04 2.402392415171099742e+02
1.861861869999999908e+04 4.427951490398069723e+02
1.871871880000000237e+04 2.578412258380469666e+02
1.881881890000000203e+04 3.608864306592891467e+02
1.891891900000000169e+04 3.527419033841184159e+02
1.901901910000000134e+04 2.962981492307956728e+02
1.911911920000000100e+04 2.567659242801510686e+02
1.921921930000000066e+04 2.739616913482850009e+02
1.931931940000000031e+04 2.436257460028102173e+02
1.941941949999999997e+04 1.883328234048373133e+02
1.951951959999999963e+04 4.343249204208174206e+02
1.961961969999999928e+04 1.362001533493933039e+02
1.971971979999999894e+04 3.190918590783693389e+02
1.981981990000000224e+04 2.509248544959869207e+02
1.991992000000000189e+04 2.447895329575231926e+02
2.002002010000000155e+04 3.005674391541392083e+02
2.012012020000000120e+04 1.236160233162443660e+02
2.022022030000000086e+04 1.198229224581045287e+02
2.032032040000000052e+04 1.590687882419190942e+02
2.042042050000000017e+04 1.987505236042655383e+02
2.052052059999999983e+04 2.183740451244057965e+02
2.062062069999999949e+04 1.889765631272916266e+02
2.072072079999999914e+04 1.804044406698796479e+02
2.082082090000000244e+04 3.321029755081455050e+02
2.092092100000000210e+04 1.065189374368032986e+02
2.102102110000000175e+04 7.500353985945835689e+01
2.112112120000000141e+04 2.405513498810427677e+02
2.122122130000000107e+04 1.954560368587771393e+02
2.132132140000000072e+04 3.407088904174209176e+01
2.142142150000000038e+04 9.763223080646145036e+01
2.152152160000000003e+04 1.784016932386527969e+02
2.162162169999999969e+04 1.127163559700930193e+02
2.172172179999999935e+04 5.592675817536107985e+01
2.182182189999999900e+04 7.746204262076835789e+01
2.192192200000000230e+04 2.908173528062619795e+01
2.202202210000000196e+04 4.198421123248749609e+01
2.212212220000000161e+04 1.532973337195267902e+02
2.222222230000000127e+04 4.310196216145049419e+01
2.232232240000000093e+04 2.037809252140601046e+01
2.242242250000000058e+04 9.193206875441900650e+01
2.252252260000000024e+04 1.500825803341891174e+02
2.262262269999999990e+04 1.842257837836598924e+02
2.272272279999999955e+04 -5.327001682788157666e+01
2.282282289999999921e+04 1.704539031611987809e+02
2.292292299999999886e+04 -4.763517077811668798e+01
2.302302310000000216e+04 6.913693730705232099e+01
2.312312320000000182e+04 1.663039203171333043e+02
2.322322330000000147e+04 -3.477895597769953184e+01
2.332332340000000113e+04 4.195651104857796554e+01
2.342342350000000079e+04 6.582887586691536796e+01
2.352352360000000044e+04 9.970555090077695581e+01
2.362362370000000010e+04 1.207928134055611906e+02
2.372372379999999976e+04 1.025229563929676857e+01
2.382382389999999941e+04 3.002107705340510435e+01
2.392392399999999907e+04 -1.011682249662573838e+02
2.402402409999999873e+04 6.485488832131525783e+01
2.412412420000000202e+04 1.093427030739734462e+01
2.422422430000000168e+04 -5.276091139171531808e+01
2.432432440000000133e+04 -1.343676993592222857e+02
2.442442450000000099e+04 -2.396221039109365236e+01
2.452452460000000065e+04 7.745194560667907524e+01
2.462462470000000030e+04 -2.232666247832728601e+00
2.472472479999999996e+04 1.547414620100062166e+02
2.482482489999999962e+04 4.500656332234484580e+00
2.492492499999999927e+04 3.549471259383045663e+01
2.502502509999999893e+04 -8.112185001090260528e+00
2.512512520000000222e+04 7.050915388839663933e+01
2.522522530000000188e+04 -1.866294350990517259e+01
2.532532540000000154e+04 3.346716860692237105e+01
2.542542550000000119e+04 7.837162129103350594e+01
2.552552560000000085e+04 3.029564356643432177e+01
2.562562570000000051e+04 8.956972797176496215e+01
2.572572580000000016e+04 -3.056233450573555999e+01
2.582582589999999982e+04 -1.152088152632833982e+02
2.592592599999999948e+04 -2.719599039925162742e+01
2.602602609999999913e+04 1.879454525827355482e+01
2.612612619999999879e+04 -2.532767741054045274e+01
2.622622630000000208e+04 -5.206147238158431279e+00
2.632632640000000174e+04 -3.327498832951402363e+01
2.642642650000000140e+04 1.423008713584576981e+02
2.652652660000000105e+04 2.810605832227238920e+02
2.662662670000000071e+04 6.664279833158907707e+01
2.672672680000000037e+04 -5.224434860741022391e+01
2.682682690000000002e+04 1.487521038685312647e+02
2.692692699999999968e+04 1.578963177004661844e+01
2.702702709999999934e+04 2.313602540557705112e+01
2.712712719999999899e+04 -1.117528499561430095e+02
2.722722730000000229e+04 -9.771441600637034242e+01
2.732732740000000194e+04 1.980539179570187969e+01
2.742742750000000160e+04 -4.346802054437115714e+01
2.752752760000000126e+04 -1.211847282080012320e+02
2.762762770000000091e+04 -1.289153503353377062e+02
2.772772780000000057e+04 -2.118763235671835332e+01
2.782782790000000023e+04 -2.596777659276690429e+02
2.792792799999999988e+04 -2.165897155799432312e+02
2.802802809999999954e+04 1.971097590261926769e+02
2.812812819999999920e+04 9.419523312422069239e+01
2.822822829999999885e+04 8.053098956858002566e+01
2.832832840000000215e+04 9.795667847862578981e+01
2.842842850000000180e+04 -7.179437078681169737e+01
2.852852860000000146e+04 3.557523800084094034e+01
2.862862870000000112e+04 -1.464493596333733105e+00
2.872872880000000077e+04 1.321102091530304961e+02
2.882882890000000043e+04 -7.679038582158618453e+01
2.892892900000000009e+04 -1.152517646038146211e+02
2.902902909999999974e+04 -3.910475545907085859e+01
2.912912919999999940e+04 -8.862437250420549617e+01
2.922922929999999906e+04 -3.215615875706566129e+01
2.932932939999999871e+04 4.257974940649475570e+01
2.942942950000000201e+04 -2.032875384688480267e+02
2.952952960000000166e+04 -1.038590514645608067e+02
2.962962970000000132e+04 -9.344645753245462316e+00
2.972972980000000098e+04 1.179756632581038645e+02
2.982982990000000063e+04 2.276849394632462520e+01
2.992993000000000029e+04 -2.618168415774532676e+01
3.003003009999999995e+04 2.610369980317123577e+02
3.013013019999999960e+04 -1.387823840822978809e+02
3.023023029999999926e+04 -2.967340185622319026e+01
3.033033039999999892e+04 -7.180430975698406826e+01
3.043043049999999857e+04 9.115700522853359189e+01
3.053053060000000187e+04 1.175227201115641549e+02
3.063063070000000153e+04 7.058333116123023387e+01
3.073073080000000118e+04 2.742800636449652529e+02
3.083083090000000084e+04 1.278159728140664875e+01
3.093093100000000049e+04 -6.922510476115179223e+00
3.103103110000000015e+04 -1.622385492697992788e+02
3.113113119999999981e+04 -6.630296345567165872e+01
3.123123129999999946e+04 4.101814857799350023e+01
3.133133139999999912e+04 3.401022970249943711e+01
3.143143149999999878e+04 1.223661838342746506e+02
3.153153160000000207e+04 1.935407680178392553e+01
3.163163170000000173e+04 -4.523927405661859780e+01
3.173173180000000139e+04 1.050120144624418543e+02
3.183183190000000104e+04 1.588463701866832878e+02
3.193193200000000070e+04 -4.963078146845268179e+01
3.203203210000000036e+04 5.012209169670989439e+01
3.213213220000000001e+04 2.394980374589050953e+01
3.223223229999999967e+04 -8.074354241878575067e+01
3.233233239999999932e+04 4.513226680597205132e+01
3.243243249999999898e+04 -4.441177906597953751e+01
3.253253259999999864e+04 -2.192264634553543488e+02
3.263263270000000193e+04 -8.059845918989823943e+00
3.273273280000000159e+04 -1.015858290585113082e+02
3.283283289999999397e+04 1.863855113243943507e+01
3.293293299999999726e+04 -9.716391094909810988e+01
3.303303309999999328e+04 8.500878721156267659e+01
3.313313319999999658e+04 2.499287953362146197e+01
3.323323329999999987e+04 3.709805153294477265e+01
3.333333339999999589e+04 -9.188089717376668020e+00
3.343343349999999919e+04 -8.627448253059849037e+01
3.353353359999999520e+04 1.941296482467470526e+02
3.363363369999999850e+04 -1.238307972905407439e+02
3.373373379999999452e+04 -6.289112995660125449e+01
3.383383389999999781e+04 -1.581243435511563860e+02
3.393393399999999383e+04 1.099478052296392434e+02
3.403403409999999712e+04 5.809510268943510880e+01
3.413413419999999314e+04 3.445591812885008931e+00
3.423423429999999644e+04 -5.119995139139319917e+01
3.433433439999999973e+04 3.238928070305566820e+01
3.443443449999999575e+04 -1.360573609822604340e+02
3.453453459999999905e+04 -2.546071432533642209e+01
3.463463469999999506e+04 9.001072644860096261e+01
3.473473479999999836e+04 -1.136447945532031554e+02
3.483483489999999438e+04 1.952458402096694812e+01
3.493493499999999767e+04 -1.904951359274827993e+01
3.503503509999999369e+04 -1.172364186311594096e+02
3.513513519999999698e+04 -4.601229935204055010e+01
3.523523529999999300e+04 -1.650470704857805231e+02
3.533533539999999630e+04 -2.027272319424324465e+01
3.543543549999999959e+04 -1.953044926309909215e+02
3.553553559999999561e+04 1.037111377780657193e+02
3.563563569999999891e+04 5.889637422455927407e+01
3.573573579999999492e+04 -5.243445916677428897e+01
3.583583589999999822e+04 1.274959651162653529e+02
3.593593599999999424e+04 1.313107452797804626e+02
3.603603609999999753e+04 2.159843282876963713e+02
3.613613619999999355e+04 4.410148234076691409e+01
3.623623629999999685e+04 1.998954957021085193e+02
3.633633640000000014e+04 6.602466269039842928e+01
3.643643649999999616e+04 -2.856245977194817698e+01
3.653653659999999945e+04 -3.877617130141238277e+01
3.663663669999999547e+04 -7.851478448622037831e+01
3.673673679999999877e+04 3.263281894873219180e+00
3.683683689999999478e+04 8.029681711713516634e+00
3.693693699999999808e+04 -8.029089926564282109e+01
3.703703709999999410e+04 1.787679581202169032e+01
3.713713719999999739e+04 -4.553548354898565265e+01
3.723723729999999341e+04 1.152473520893760366e+02
3.733733739999999671e+04 3.477984115583445401e+01
3.743743750000000000e+04 1.017044599459120491e+02
3.753753759999999602e+04 -1.065922968604447902e+02
3.763763769999999931e+04 -4.823284731110446444e+01
3.773773779999999533e+04 -4.219978527055259576e+01
3.783783789999999863e+04 5.756698939764354428e+00
3.793793799999999464e+04 -3.170092453465397142e+01
3.803803809999999794e+04 6.794761761068758688e+01
3.813813819999999396e+04 2.926773699626822278e+01
3.823823829999999725e+04 -1.194948217562631214e+02
3.833833839999999327e+04 -1.254907761773360164e+02
3.843843849999999657e+04 8.009341670083318832e+01
3.853853859999999986e+04 5.637861195284133942e+01
3.863863869999999588e+04 3.101651335268856258e+01
3.873873879999999917e+04 2.941430954591568891e+01
3.883883889999999519e+04 8.152947230777130017e+01
3.893893899999999849e+04 -5.474573338559438440e+01
3.903903909999999451e+04 3.543123497440808478e+01
3.913913919999999780e+04 -9.533738670699440831e+01
3.923923929999999382e+04 -1.836701146216151770e+01
3.933933939999999711e+04 -5.803947163045081936e+01
3.943943949999999313e+04 -1.149068748114729033e+02
3.953953959999999643e+04 1.720390634318597165e+02
3.963963969999999972e+04 1.264962430719147157e+01
3.973973979999999574e+04 -1.366954707413199515e+02
3.983983989999999903e+04 -5.018777180712606878e+01
3.993993999999999505e+04 4.462417869844777840e+01
4.004004009999999835e+04 5.262925296285792420e+00
4.014014019999999437e+04 2.437025289929939049e+02
4.024024029999999766e+04 1.773013570630934055e+02
4.034034039999999368e+04 1.825442002098474958e+00
4.044044049999999697e+04 -2.248510956594933532e+02
4.054054059999999299e+04 -5.013418163711030928e+01
4.064064069999999629e+04 7.016973273007472756e+01
4.074074079999999958e+04 5.940952389252293386e+01
4.084084089999999560e+04 1.576392384961812922e+02
4.094094099999999889e+04 7.392095115339857081e+00
4.104104109999999491e+04 5.533972932332191164e+01
4.114114119999999821e+04 -5.660641547769796489e+01
4.124124129999999423e+04 -5.630157739887539492e+01
4.134134139999999752e+04 -7.069217367824410303e+01
4.144144149999999354e+04 2.670045204688034701e+01
4.154154159999999683e+04 -1.390934338795554481e+02
4.164164170000000013e+04 6.471697033674580268e+01
4.174174179999999615e+04 6.457273288273198020e+00
4.184184189999999944e+04 -1.725739515868546903e+01
4.194194199999999546e+04 -1.152293007206925601e+01
4.204204209999999875e+04 -5.713704237281567089e+01
4.214214219999999477e+04 5.435700554340727564e+01
4.224224229999999807e+04 -6.852217763327587363e+01
4.234234239999999409e+04 8.950494239235007399e+01
4.244244249999999738e+04 -6.718400907763425778e+01
4.254254259999999340e+04 3.703520594802197508e+01
4.264264269999999669e+04 -2.430742659051226795e+01
4.274274279999999999e+04 5.514120161746824778e+01
4.284284289999999601e+04 6.849006434461004744e+01
4.294294299999999930e+04 -2.721796893308455267e+01
4.304304309999999532e+04 -8.112519931146826480e+01
4.314314319999999861e+04 -1.124157615083105455e+01
4.324324329999999463e+04 1.532784776940649749e+02
4.334334339999999793e+04 1.398314616030163222e+02
4.344344349999999395e+04 4.285192130668484367e+01
4.354354359999999724e+04 6.202596867977288753e+01
4.364364369999999326e+04 -6.755086830339176451e+00
4.374374379999999655e+04 -1.178457285805388324e+02
4.384384389999999985e+04 1.428837392672186013e+01
4.394394399999999587e+04 -3.142493502605725908e+01
4.404404409999999916e+04 2.064653856097531559e+01
4.414414419999999518e+04 7.167920710192304057e+01
4.424424429999999847e+04 1.996579646344942205e+01
4.434434439999999449e+04 -1.796244293514310186e+01
4.444444449999999779e+04 2.633137742928188274e+01
4.454454459999999381e+04 3.190730291003775587e+00
4.464464469999999710e+04 5.474954613626253774e+01
4.474474479999999312e+04 -7.325931732005554409e+01
4.484484489999999641e+04 -8.778265014660078691e+00
4.494494499999999971e+04 -1.154121830486400313e+01
4.504504509999999573e+04 -1.520549960498149176e+02
4.514514519999999902e+04 1.812081059361122470e+01
4.524524529999999504e+04 -1.464424564402875895e+01
4.534534539999999834e+04 6.041861180838618850e+01
4.544544549999999435e+04 -9.042372453669462118e+01
4.554554559999999765e+04 4.126892437177562556e+01
4.564564569999999367e+04 1.031610537678639190e+02
4.574574579999999696e+04 -4.941222656480890407e+01
4.584584589999999298e+04 -7.342557600465725898e+01
4.594594599999999627e+04 4.370095591604054874e+01
4.604604609999999957e+04 -9.237776006168402887e+00
4.614614619999999559e+04 -6.761821866050276242e+01
4.624624629999999888e+04 7.319426654482832362e+01
4.634634639999999490e+04 -1.538396487662067713e+01
4.644644649999999820e+04 4.768069749677084523e+00
4.654654659999999421e+04 1.308173542011962240e+02
4.664664669999999751e+04 -4.023512405651538870e+01
4.674674679999999353e+04 1.135333995128362616e+01
4.684684689999999682e+04 -5.623563078646252933e+01
4.694694699999999284e+04 -5.191158770361577268e+01
4.704704709999999614e+04 -1.593660906617752744e+02
4.714714719999999943e+04 1.401257725337858346e+02
4.724724729999999545e+04 3.202368589335980786e+00
4.734734739999999874e+04 1.270668350859313591e+02
4.744744749999999476e+04 1.854591920191056786e+01
4.754754759999999806e+04 1.755356146096654584e+02
4.764764769999999407e+04 1.149177829272939988e+01
4.774774779999999737e+04 3.093443616925385342e+01
4.784784789999999339e+04 3.134834826657154849e+01
4.794794799999999668e+04 -1.011048026835163256e+02
4.804804809999999270e+04 -6.244520512093996700e+01
4.814814819999999600e+04 -6.871113250483868562e+00
4.824824829999999929e+04 -3.023557695747581064e+01
4.834834839999999531e+04 -9.362400346600759349e+01
4.844844849999999860e+04 4.506641192983989441e+01
4.854854859999999462e+04 -1.959990518363156653e+01
4.864864869999999792e+04 -2.282744428682632787e+01
4.874874879999999393e+04 9.498079579764345226e+01
4.884884889999999723e+04 -9.087910101166994536e+01
4.894894899999999325e+04 -7.957413486131344194e-02
4.904904909999999654e+04 1.356173262312205363e+00
4.914914919999999984e+04 1.316332496326968169e+02
4.924924929999999586e+04 9.046404757452620515e+01
4.934934939999999915e+04 6.957795014422195834e+01
4.944944949999999517e+04 -1.384533237801518801e+01
4.954954959999999846e+04 -1.409201479753948547e+02
4.964964969999999448e+04 1.377127945711977475e+02
4.974974979999999778e+04 -1.254222936770348156e+02
4.984984989999999380e+04 -9.160596137687039686e+01
4.994994999999999709e+04 7.579158138191870364e+01
5.005005009999999311e+04 8.403302504836439368e+01
5.015015019999999640e+04 -4.776435263094590056e+01
5.025025029999999970e+04 9.152004295517288313e+01
5.035035039999999572e+04 -7.021198897541436779e+00
5.045045049999999901e+04 -2.896596867486593752e+01
5.055055059999999503e+04 1.802698709396487970e+02
5.065065069999999832e+04 -3.898542801505819000e+01
5.075075079999999434e+04 -3.017796270229655775e+01
5.085085089999999764e+04 -4.703328814670692282e+01
5.095095099999999366e+04 -2.162721975822174514e+01
5.105105109999999695e+04 4.715505621335257302e+01
5.115115119999999297e+04 1.125456685779074348e+02
5.125125129999999626e+04 1.183218891474607943e+02
5.135135139999999956e+04 -3.296128852737270076e+00
5.145145149999999558e+04 -1.754190524271178333e+02
5.155155159999999887e+04 4.676568113265575022e+01
5.165165169999999489e+04 1.690399532888898477e+02
5.175175179999999818e+04 -4.563236070816326162e+01
5.185185189999999420e+04 -1.420985719331801533e+02
5.195195199999999750e+04 -7.833589705200111553e+01
5.205205209999999352e+04 1.508619358612112080e+02
5.215215219999999681e+04 -1.946675750208529720e+01
5.225225229999999283e+04 -1.353869931736559806e+02
5.235235239999999612e+04 2.025809759121203157e+01
5.245245249999999942e+04 6.332164119454861861e+01
5.255255259999999544e+04 -7.015882910735832922e+01
5.265265269999999873e+04 -1.278489965034907812e+02
5.275275279999999475e+04 2.741573782760889344e+02
5.285285289999999804e+04 1.505262307740262315e+02
5.295295299999999406e+04 9.434721910508068277e+01
5.305305309999999736e+04 -1.680205232991185582e+01
5.315315319999999338e+04 -5.479415103071769266e+01
5.325325329999999667e+04 2.520671399427244452e+01
5.335335339999999269e+04 1.565999569230320674e+02
5.345345349999999598e+04 3.160030919242533543e+01
5.355355359999999928e+04 1.241296136290623906e+02
5.365365369999999530e+04 -4.875430738648288553e+01
5.375375379999999859e+04 -2.181154381795138306e+02
5.385385389999999461e+04 7.862407247652399178e+01
5.395395399999999790e+04 -2.487291465905876464e+01
5.405405409999999392e+04 2.558637862633589943e+00
5.415415419999999722e+04 7.978574175817941239e+01
5.425425429999999324e+04 -2.955073402490511114e+01
5.435435439999999653e+04 1.070525289875697013e+02
5.445445449999999983e+04 -1.704089875961421399e+02
5.455455459999999584e+04 6.265871494483376125e+01
5.465465469999999914e+04 1.704152060756122111e+01
5.475475479999999516e+04 -1.142092382114961335e+00
5.485485489999999845e+04 1.462650101023082811e+02
5.495495499999999447e+04 -1.045857395922188999e+02
5.505505509999999776e+04 4.291350726723476328e+01
5.515515519999999378e+04 -8.574964067658683575e+01
5.525525529999999708e+04 -3.434173030010410343e+01
5.535535539999999310e+04 -9.710389922718169942e+01
5.545545549999999639e+04 -1.945253307177570150e+02
5.555555559999999969e+04 4.264675256525856639e+01
5.565565569999999570e+04 3.562486030215148958e+01
5.575575579999999900e+04 8.648729774999897302e+01
5.585585589999999502e+04 -1.540226221909909157e+02
5.595595599999999831e+04 5.744030648600321598e+01
5.605605609999999433e+04 -5.057734469856069381e+01
5.615615619999999763e+04 4.907132882929607121e+01
5.625625629999999364e+04 9.231089933691667682e+01
5.635635639999999694e+04 1.456970358688757017e+02
5.645645649999999296e+04 -5.447146952164519718e+01
5.655655659999999625e+04 -1.030211101842708814e+02
5.665665669999999955e+04 8.024739317980377962e+01
5.675675679999999556e+04 3.816300662475336480e+01
5.685685689999999886e+04 -9.675383773731820725e+01
5.695695699999999488e+04 -3.735911643265480642e+00
5.705705709999999817e+04 4.131755090938727193e+01
5.715715719999999419e+04 3.674185842640812893e+01
5.725725729999999749e+04 -1.899890037595147589e+02
5.735735739999999350e+04 1.572453055603241694e+02
5.745745749999999680e+04 -3.303748907404865776e+01
5.755755759999999282e+04 -4.994457055124172484e+01
5.765765769999999611e+04 -1.710917163375156136e+01
5.775775779999999941e+04 4.588315337191691867e+01
5.785785789999999542e+04 -5.617410646470644764e+01
5.795795799999999872e+04 -1.049444872001459750e+01
5.805805809999999474e+04 8.633835330083184090e+01
5.815815819999999803e+04 -9.625618959273032260e+01
5.825825829999999405e+04 5.613124532178278514e+01
5.835835839999999735e+04 -8.811253657135129913e+01
5.845845849999999336e+04 -1.897451851705064314e+02
5.855855859999999666e+04 9.823460051917431990e-01
5.865865869999999268e+04 -4.959315683335895386e+01
5.875875879999999597e+04 1.192701468326197016e+02
5.885885889999999927e+04 7.696262396172963349e+01
5.895895899999999529e+04 4.134973176041772724e+00
5.905905909999999858e+04 -7.102336343057231716e+01
5.915915919999999460e+04 5.590020247512274665e+01
5.925925929999999789e+04 3.691574699187917474e+01
5.935935939999999391e+04 -7.987484031377543658e+01
5.945945949999999721e+04 1.669888868051842223e+02
5.955955959999999322e+04 3.784937980391872259e+01
5.965965969999999652e+04 2.014538554764395712e+02
5.975975979999999254e+04 1.135549756574420321e+01
5.985985989999999583e+04 -6.170517464433245181e+01
5.995995999999999913e+04 4.096487225053913761e+01
6.006006009999999515e+04 -4.538331912088568032e+01
6.016016019999999844e+04 -9.111251377089614323e+01
6.026026029999999446e+04 6.292007159495476287e+01
6.036036039999999775e+04 2.963891078090630060e+01
6.046046049999999377e+04 9.280282632760835781e+01
6.056056059999999707e+04 -2.128925352766380730e+00
6.066066069999999308e+04 -5.800717229948381970e+01
6.076076079999999638e+04 1.936858762122706690e+00
6.086086089999999240e+04 1.290731761687596588e+02
6.096096099999999569e+04 4.018834172084588374e+01
6.106106109999999899e+04 6.056176472527410226e+01
6.116116119999999501e+04 1.399975925432667907e+02
6.126126129999999830e+04 -5.544498461538232448e+01
6.136136139999999432e+04 8.107616880164612017e-01
6.146146149999999761e+04 -2.316823803580089987e+02
6.156156159999999363e+04 3.526770224674670118e+01
6.166166169999999693e+04 -1.288976396492460310e+02
6.176176179999999295e+04 -7.831521161564337774e+01
6.186186189999999624e+04 6.601891367397320209e+01
6.196196199999999953e+04 -1.451841956176748454e+02
6.206206209999999555e+04 -2.328678443972952650e+01
6.216216219999999885e+04 -1.011354707239229072e+02
6.226226229999999487e+04 7.956068493497247118e+01
6.236236239999999816e+04 -5.051737512503582650e+01
6.246246249999999418e+04 -9.593277347504630370e+01
6.256256259999999747e+04 -1.544241811178434318e+02
6.266266269999999349e+04 -3.547554633858342044e+01
6.276276279999999679e+04 -1.374631335067370514e+02
6.286286289999999281e+04 5.244691541766807319e+01
6.296296299999999610e+04 9.519608282403369515e+01
6.306306309999999939e+04 -1.174073734671779050e+02
6.316316319999999541e+04 4.153863075025108742e+01
6.326326329999999871e+04 -5.665430225433496503e+01
6.336336339999999473e+04 9.934831227543156729e+01
6.346346349999999802e+04 1.651286296891098360e+01
6.356356359999999404e+04 6.143972846349151951e+01
6.366366369999999733e+04 8.804433742088855297e+01
6.376376379999999335e+04 8.970407896905659584e+01
6.386386389999999665e+04 2.846224065912657508e+01
6.396396399999999267e+04 -1.635674168560766262e+01
6.406406409999999596e+04 1.084006306692593569e+02
6.416416419999999925e+04 1.839029313193449298e+02
6.426426429999999527e+04 8.196162354586094523e+01
6.436436439999999857e+04 7.753330097604472826e+01
6.446446449999999459e+04 1.454525952024718549e+01
6.456456459999999788e+04 5.833491897737204113e+00
6.466466469999999390e+04 -9.084145539712747563e+01
6.476476479999999719e+04 1.028166868019312972e+02
6.486486489999999321e+04 -1.161229499653623236e+02
6.496496499999999651e+04 1.865161876788563404e+02
6.506506509999999253e+04 1.324157677297080404e+01
6.516516519999999582e+04 1.583271292965790167e+01
6.526526529999999912e+04 -4.422615063275598501e+00
6.536536539999999513e+04 -7.916603991387837880e+01
6.546546549999999843e+04 1.298054245853670920e+02
6.556556560000000172e+04 1.284911573719472422e+01
6.566566569999999774e+04 -5.674526286258586794e+01
6.576576580000000831e+04 1.093580932940133863e+02
6.586586590000000433e+04 -6.597597374175261109e+01
6.596596600000000035e+04 3.649507307414388890e+01
6.606606609999999637e+04 -3.001026532111398737e+01
6.616616620000000694e+04 -8.417014975981714997e+01
6.626626630000000296e+04 -7.708059096104720709e+01
6.636636639999999898e+04 1.122400685596309415e+02
6.646646650000000955e+04 2.958327579585063631e+02
6.656656660000000556e+04 -4.504252488193503012e+01
6.666666670000000158e+04 -9.491486584739689647e+01
6.676676679999999760e+04 -2.448966997485537789e+01
6.686686690000000817e+04 4.030550274357405982e+01
6.696696700000000419e+04 -1.324697333512997766e+01
6.706706710000000021e+04 9.298561512597302681e+01
6.716716719999999623e+04 -1.991259098552178486e+01
6.726726730000000680e+04 -7.910931124301392003e+01
6.736736740000000282e+04 -3.720857152529276135e+01
6.746746749999999884e+04 9.221199354984979379e+01
6.756756760000000941e+04 -1.929508241774206567e+02
6.766766770000000542e+04 8.734440323038809595e+01
6.776776780000000144e+04 6.695096692226532298e+01
6.786786789999999746e+04 -1.372874161041375771e+02
6.796796800000000803e+04 -6.109128719844905930e+01
6.806806810000000405e+04 -6.980174670178539031e+01
6.816816820000000007e+04 9.765226036239602081e+01
6.826826829999999609e+04 1.409336999601852547e+01
6.836836840000000666e+04 -1.193914262641367259e+02
6.846846850000000268e+04 1.147537200333176912e+02
6.856856859999999870e+04 -6.847164841204067898e+01
6.866866870000000927e+04 -5.489963842829822482e+01
6.876876880000000529e+04 -1.899309874603306696e+02
6.886886890000000130e+04 -2.589487525774371690e+01
6.896896899999999732e+04 -1.074682306171052204e+02
6.906906910000000789e+04 -6.587844280622913828e+00
6.916916920000000391e+04 -1.690656809067692450e+02
6.926926929999999993e+04 -6.718153176404740634e+01
6.936936939999999595e+04 3.850959354136255541e+01
6.946946950000000652e+04 -7.177598776246402679e+01
6.956956960000000254e+04 2.759298646585777703e+01
6.966966969999999856e+04 -1.254478029867789814e+02
6.976976980000000913e+04 -7.038894958301180793e+01
6.986986990000000515e+04 -8.046990007552268764e+01
6.996997000000000116e+04 1.822638321799664851e+01
7.007007009999999718e+04 -1.956774804714681011e+02
7.017017020000000775e+04 2.758638991637736737e+01
7.027027030000000377e+04 9.996364163312850337e+01
7.037037039999999979e+04 -2.846087125928753636e+01
7.047047049999999581e+04 9.477309115110740478e+00
7.057057060000000638e+04 1.283558491351712121e+02
7.067067070000000240e+04 9.835019688032821250e+01
7.077077079999999842e+04 5.350297274919495294e+01
7.087087090000000899e+04 -2.011605574643173782e+02
7.097097100000000501e+04 -6.652949886898676368e+01
7.107107110000000102e+04 -3.804040986695819981e+01
7.117117119999999704e+04 -1.264125278388472822e+02
7.127127130000000761e+04 -5.338061819297530519e+01
7.137137140000000363e+04 -1.548161611552419288e+02
7.147147149999999965e+04 -2.036984127774155127e+02
7.157157160000001022e+04 -1.019554645758437017e+00
7.167167170000000624e+04 1.913004362534763558e+01
7.177177180000000226e+04 -2.240075808425939954e+02
7.187187189999999828e+04 -3.587215134529824923e+01
7.197197200000000885e+04 -3.128567755265715888e+01
7.207207210000000487e+04 5.241256442550542261e+01
7.217217220000000088e+04 7.380774137099271570e+01
7.227227229999999690e+04 1.484087131162893911e+02
7.237237240000000747e+04 4.161348051867393139e+01
7.247247250000000349e+04 -2.357156508785643467e+01
7.257257259999999951e+04 6.071959635650290465e+01
7.267267270000001008e+04 -9.022482308599267142e+00
7.277277280000000610e+04 3.770426975509543865e+01
7.287287290000000212e+04 -1.042996056126740569e+02
7.297297299999999814e+04 -4.090844038959053108e+01
7.307307310000000871e+04 -1.149300639858209649e+01
7.317317320000000473e+04 8.789959860390561630e+01
7.327327330000000075e+04 1.534803441533297530e+02
7.337337339999999676e+04 -2.156957031364325772e+01
7.347347350000000733e+04 -2.761869016403606452e+02
7.357357360000000335e+04 -7.626553875767710622e+01
7.367367369999999937e+04 9.784991338825851415e+01
7.377377380000000994e+04 -5.009205566253155695e+01
7.387387390000000596e+04 -5.854130542871162390e+01
7.397397400000000198e+04 5.155810054635549022e+01
7.407407409999999800e+04 -1.876493573286965955e+01
7.417417420000000857e+04 -7.534258965781909012e+00
7.427427430000000459e+04 1.325839968559423454e+01
7.437437440000000061e+04 -1.123911965303807037e+01
7.447447449999999662e+04 4.340698101479302551e+01
7.457457460000000719e+04 -9.100689433641176151e+01
7.467467470000000321e+04 -4.800912038414069372e+01
7.477477479999999923e+04 -9.171976025695785495e+01
7.487487490000000980e+04 1.002731119622819449e+02
7.497497500000000582e+04 -2.703015255918146309e+01
7.507507510000000184e+04 6.504173752188840751e+01
7.517517519999999786e+04 -1.289945380812754934e+02
7.527527530000000843e+04 6.895796254280571702e+01
7.537537540000000445e+04 -5.947104725713958828e+01
7.547547550000000047e+04 -2.787733176754309028e+01
7.557557559999999648e+04 -5.016595065691578981e+00
7.567567570000000705e+04 1.102566290570124181e+02
7.577577580000000307e+04 -1.605603334854407649e+01
7.587587589999999909e+04 -7.735713281959952781e+01
7.597597600000000966e+04 -1.857223650950919023e+02
7.607607610000000568e+04 1.179553308876866140e+02
7.617617620000000170e+04 -2.419164220768476170e+01
7.627627629999999772e+04 1.494201613294555671e+02
7.637637640000000829e+04 -1.093848758111415549e+02
7.647647650000000431e+04 -6.244022160314239756e+01
7.657657660000000033e+04 -1.474455418232536772e+02
7.667667669999999634e+04 6.048485021746912338e+01
7.677677680000000692e+04 -9.307243558161784946e+00
7.687687690000000293e+04 9.710914107846456034e+01
7.697697699999999895e+04 7.090809134256282675e+01
7.707707710000000952e+04 1.441578760933010983e+02
7.717717720000000554e+04 6.775441543730839555e+01
7.727727730000000156e+04 -2.470959718199841575e+02
7.737737739999999758e+04 6.916611596026486097e+01
7.747747750000000815e+04 2.035170083835729216e+01
7.757757760000000417e+04 1.001095723490708735e+02
7.767767770000000019e+04 -5.284460657422476970e+01
7.777777779999999620e+04 1.148969846548977891e+01
7.787787790000000678e+04 -6.077357809144079681e+01
7.797797800000000279e+04 -3.522893364197830834e+01
7.807807809999999881e+04 -7.501292048638886456e+01
7.817817820000000938e+04 -1.352435446545511866e+02
7.827827830000000540e+04 8.015289592218318049e+00
7.837837840000000142e+04 1.986410140612685780e+02
7.847847849999999744e+04 9.190361510428198244e+01
7.857857860000000801e+04 -9.384992959813946811e+01
7.867867870000000403e+04 4.277347195293839377e+01
7.877877880000000005e+04 1.885751344936072655e+02
7.887887889999999607e+04 2.537565387728762278e+00
7.897897900000000664e+04 -8.838017860953189597e+01
7.907907910000000265e+04 1.188337161057753022e+01
7.917917919999999867e+04 1.834595678323361483e+02
7.927927930000000924e+04 5.540780493148363917e+01
7.937937940000000526e+04 -1.225610974285337136e+02
7.947947950000000128e+04 -6.125833286452312620e+01
7.957957959999999730e+04 -1.055435070668262512e+02
7.967967970000000787e+04 -1.139677390611623480e+02
7.977977980000000389e+04 -6.830297682302447981e+01
7.987987989999999991e+04 -1.051986197071092590e+02
7.997997999999999593e+04 -4.549593762896428473e+01
8.008008010000000650e+04 -1.120389000761280407e+01
8.018018020000000251e+04 8.147918400438034325e+01
8.028028029999999853e+04 2.965367048344424461e+01
8.038038040000000910e+04 -1.092745444080890991e+02
8.048048050000000512e+04 4.961457015618601751e+00
8.058058060000000114e+04 9.934629727815612910e+01
8.068068069999999716e+04 8.857472411530284973e+00
8.078078080000000773e+04 4.593913402301243454e-01
8.088088090000000375e+04 1.537822553471195590e+02
8.098098099999999977e+04 1.259221656731175756e+02
8.108108109999999579e+04 -1.336635003913730202e+02
8.118118120000000636e+04 6.468945315659728124e+01
8.128128130000000237e+04 -2.016124851837835408e+01
8.138138139999999839e+04 -2.419221560896095724e+01
8.148148150000000896e+04 -3.832255075827823276e+01
8.158158160000000498e+04 -5.145194630944007486e+01
8.168168170000000100e+04 1.571156195407198197e+01
8.178178179999999702e+04 -6.243468989682270376e+01
8.188188190000000759e+04 8.805260194057603940e+01
8.198198200000000361e+04 -1.242610508457465528e+02
8.208208209999999963e+04 6.965388225186451621e+00
8.218218219999999565e+04 -3.228397654155136820e+01
8.228228230000000622e+04 -1.288060646750182912e+02
8.238238240000000224e+04 7.557268562855513494e+01
8.248248249999999825e+04 8.138307578111286489e+01
8.258258260000000882e+04 5.563425755359855174e+01
8.268268270000000484e+04 1.055462933354699402e+02
8.278278280000000086e+04 -1.034213403463633085e+01
8.288288289999999688e+04 -7.043671687523470837e+01
8.298298300000000745e+04 1.622315492504628196e+02
8.308308310000000347e+04 -1.979844236525931223e+01
8.318318319999999949e+04 1.169631639978912574e+01
8.328328330000001006e+04 -1.103514183543598648e+02
8.338338340000000608e+04 2.501149407213719655e+01
8.348348350000000210e+04 -3.136213089255761588e+01
8.358358359999999811e+04 -2.415364317669870431e+01
8.368368370000000868e+04 7.389361841986877266e+01
8.378378380000000470e+04 -2.541210621086371546e+01
8.388388390000000072e+04 6.044727179454960719e+01
8.398398399999999674e+04 1.432544541710768158e+02
8.408408410000000731e+04 2.019372094765233214e+02
8.418418420000000333e+04 5.991191542420845906e+01
8.428428429999999935e+04 -1.292435327541196557e+02
8.438438440000000992e+04 -1.476418598827358437e+02
8.448448450000000594e+04 -1.008885612395444156e+02
8.458458460000000196e+04 -1.602750238893035828e+02
8.468468469999999797e+04 1.108878869435233838e+02
8.478478480000000854e+04 5.566758154233980349e+01
8.488488490000000456e+04 -1.789825294610916728e+01
8.498498500000000058e+04 -1.266567481896423430e+02
8.508508509999999660e+04 5.361383127753630617e+01
8.518518520000000717e+04 -1.884323711093602753e+02
8.528528530000000319e+04 -5.926672696553000463e+01
8.538538539999999921e+04 -1.486058951605070177e+01
8.548548550000000978e+04 -6.028695714236190639e+01
8.558558560000000580e+04 1.250115570826071121e+02
8.568568570000000182e+04 2.744131679664927503e+01
8.578578579999999783e+04 9.057220903465140793e+01
8.588588590000000841e+04 -4.795985827409881885e+00
8.598598600000000442e+04 4.365419504724696509e+01
8.608608610000000044e+04 -8.455906088945894794e+00
8.618618619999999646e+04 -5.450134125291081943e+01
8.628628630000000703e+04 2.031462565427225542e+01
8.638638640000000305e+04 1.122858575111922796e+01
8.648648649999999907e+04 -3.111390213282686545e+01
8.658658660000000964e+04 6.088719507395499164e+01
8.668668670000000566e+04 -7.493875813887694903e+01
8.678678680000000168e+04 -1.412991852900578351e+02
8.688688689999999769e+04 1.090021976094732992e+02
8.698698700000000827e+04 7.705162554252041218e+01
8.708708710000000428e+04 -4.691842038186278785e+01
8.718718720000000030e+04 1.437989958680122129e+02
8.728728729999999632e+04 2.317129340766786072e+01
8.738738740000000689e+04 3.043320830635235907e+01
8.748748750000000291e+04 1.325238157861119248e+02
8.758758759999999893e+04 -2.209169952385628335e+02
8.768768770000000950e+04 -8.837148337843385093e+01
8.778778780000000552e+04 -5.248182303594979459e+01
8.788788790000000154e+04 -8.586831753874594853e+00
8.798798799999999756e+04 2.335010067703083223e+02
8.808808810000000813e+04 1.785311497957378890e+02
8.818818820000000414e+04 1.364403603204978879e+02
8.828828830000000016e+04 -1.044886669986232732e+02
8.838838839999999618e+04 -9.706728842196238816e+01
8.848848850000000675e+04 -6.137539325633791520e+01
8.858858860000000277e+04 -9.278370665249008198e+01
8.868868869999999879e+04 1.639736876999617436e+02
8.878878880000000936e+04 -1.933384605853294715e+02
8.888888890000000538e+04 -6.560339834641013113e+01
8.898898900000000140e+04 2.396076577864252499e+01
8.908908909999999742e+04 -1.382736645840239760e+02
8.918918920000000799e+04 1.145844881480204975e+02
8.928928930000000400e+04 -7.572154069493933548e+01
8.938938940000000002e+04 1.818980162342816342e+01
8.948948949999999604e+04 6.063420742597762647e+00
8.958958960000000661e+04 -1.316188110416481720e+02
8.968968970000000263e+04 -1.298070463225095068e+02
8.978978979999999865e+04 -9.031841009411435550e+01
8.988988990000000922e+04 3.345956939241811767e+01
8.998999000000000524e+04 1.771303661318556237e+02
9.009009010000000126e+04 3.094457714061833897e+01
9.019019019999999728e+04 -2.811327659816774727e+01
9.029029030000000785e+04 8.284991706902613373e+01
9.039039040000000386e+04 1.202231893564444221e+02
9.049049049999999988e+04 -6.245105923792052316e+00
9.059059059999999590e+04 7.506231113706490987e+01
9.069069070000000647e+04 -5.487648697760482008e+01
9.079079080000000249e+04 -5.897757678553669791e+01
9.089089089999999851e+04 -7.216847955564216477e+01
9.099099100000000908e+04 1.359938637583081231e+02
9.109109110000000510e+04 -2.278476178940649888e+01
9.119119120000000112e+04 9.142993895295242623e+01
9.129129129999999714e+04 -6.918594852157572639e+00
9.139139140000000771e+04 -1.396287672450874062e+01
9.149149150000000373e+04 8.425189546777427552e+01
9.159159159999999974e+04 -6.939316074415243918e+01
9.169169169999999576e+04 7.373306862425307884e+01
9.179179180000000633e+04 5.473825169948701586e+01
9.189189190000000235e+04 -1.788951657157685204e+01
9.199199199999999837e+04 4.660110275911218736e+01
9.209209210000000894e+04 1.821577007113563695e+02
9.219219220000000496e+04 -7.636673932330332093e+01
9.229229230000000098e+04 2.047513527173529155e+02
9.239239239999999700e+04 -6.527621042863712830e+01
9.249249250000000757e+04 1.402979966971723513e+02
9.259259260000000359e+04 -1.527898541656351199e+02
9.269269269999999960e+04 5.660140505737807359e+01
9.279279279999999562e+04 -3.172644164399600175e+00
9.289289290000000619e+04 2.244943608182297226e+02
9.299299300000000221e+04 7.120224968502306240e+01
9.309309309999999823e+04 4.325222529783023795e+00
9.319319320000000880e+04 -2.493085610842521405e+01
9.329329330000000482e+04 -3.419963552424166409e+01
9.339339340000000084e+04 2.832570367191454963e+01
9.349349349999999686e+04 7.047834218431246711e+01
9.359359360000000743e+04 -1.533600329288357855e+01
9.369369370000000345e+04 4.714433304755227283e+01
9.379379379999999946e+04 -1.182036515465712228e+02
9.389389389999999548e+04 3.444203148051753516e+01
9.399399400000000605e+04 -2.333702602701826123e+01
9.409409410000000207e+04 -3.092915827169783682e+01
9.419419419999999809e+04 -1.988564128343432458e+02
9.429429430000000866e+04 -3.121314792438483323e+02
9.439439440000000468e+04 -1.528199644538045732e+02
9.449449450000000070e+04 7.397796453503973169e+01
9.459459459999999672e+04 -1.091417245966483733e+02
9.469469470000000729e+04 -1.051623622213068643e+01
9.479479480000000331e+04 -2.193850435753283890e+01
9.489489489999999932e+04 2.295190278001879491e+01
9.499499499999999534e+04 3.413803137946941746e+01
9.509509510000000591e+04 1.795048099438642453e+02
9.519519520000000193e+04 -4.135624741838999086e+00
9.529529529999999795e+04 3.493146130277284556e+01
9.539539540000000852e+04 4.745793825212223993e+01
9.549549550000000454e+04 -4.339304324275973102e+01
9.559559560000000056e+04 -1.004310064618895204e+01
9.569569569999999658e+04 -9.225229684562384236e+00
9.579579580000000715e+04 7.716041278612402721e+01
9.589589590000000317e+04 -1.141761548750309601e+02
9.599599599999999919e+04 8.256967096994550559e+01
9.609609609999999520e+04 -4.623985369852265492e+00
9.619619620000000577e+04 -7.900020419757601076e+01
9.629629630000000179e+04 -7.637969258174567244e+01
9.639639639999999781e+04 1.930763513880634434e+02
9.649649650000000838e+04 5.873413061431725168e+01
9.659659660000000440e+04 3.789908637868591335e+00
9.669669670000000042e+04 7.529036429798904351e+01
9.679679679999999644e+04 5.134084497475485165e+01
9.689689690000000701e+04 -1.344941185797332253e+02
9.699699700000000303e+04 -2.516526419934645986e+01
9.709709709999999905e+04 1.927098725614265220e+02
9.719719720000000962e+04 -6.313368665924381418e+01
9.729729730000000563e+04 -7.715503983881759176e+00
9.739739740000000165e+04 4.047388942630853137e+01
9.749749749999999767e+04 -6.741134936165332192e+01
9.759759760000000824e+04 1.541809081646660218e+02
9.769769770000000426e+04 -5.419556372290934831e+01
9.779779780000000028e+04 -1.590573923461559787e+02
9.789789789999999630e+04 6.478570195117656283e+01
9.799799800000000687e+04 3.083896490271601110e+01
9.809809810000000289e+04 8.025338742718281537e+01
9.819819819999999891e+04 4.155337428420802581e+01
9.829829830000000948e+04 2.095430627044067151e+01
9.839839840000000549e+04 8.754131368938708135e+01
9.849849850000000151e+04 6.650639499229626495e+01
9.859859859999999753e+04 6.278995862182592447e+01
9.869869870000000810e+04 -5.868228100348473930e+01
9.879879880000000412e+04 -6.153042424877502015e+01
9.889889890000000014e+04 1.258382758479172026e+01
9.899899899999999616e+04 -5.508562236321854932e+00
9.909909910000000673e+04 7.254174657929428349e+01
9.919919920000000275e+04 1.362495523423549741e+02
9.929929929999999877e+04 7.549422165784095284e+01
9.939939940000000934e+04 2.482092038215623688e+02
9.949949950000000536e+04 -1.636597925739509094e+02
9.959959960000000137e+04 -5.705727779898241891e+01
9.969969969999999739e+04 -1.215770475424577057e+02
9.979979980000000796e+04 -4.084948974475512529e+01
9.989989990000000398e+04 2.121759030480901131e+01
1.000000000000000000e+05 1.101925381233520369e+02
