1.000000000000000048e-04 1.565125352704786224e+02
1.001002000000000010e+02 1.333218122474097527e+02
2.002002999999999986e+02 9.273637118667851098e+01
3.003003999999999678e+02 2.993513382757797103e+02
4.004004999999999654e+02 4.061382710800948530e+02
5.005005999999999631e+02 5.535916349672434080e+02
6.006006999999999607e+02 6.843097475686246298e+02
7.007007999999999583e+02 7.117948144260311665e+02
8.008008999999999560e+02 7.550124424670812004e+02
9.009009999999999536e+02 9.775603076345340696e+02
1.001001099999999951e+03 1.061957380287826936e+03
1.101101199999999835e+03 1.032778459140566383e+03
1.201201299999999947e+03 1.233965813879462985e+03
1.301301400000000058e+03 1.267575591065888148e+03
1.401401499999999942e+03 1.441828993066711064e+03
1.501501599999999826e+03 1.526619636237368695e+03
1.601601699999999937e+03 1.651282725514872482e+03
1.701701800000000048e+03 1.692764460943608583e+03
1.801801899999999932e+03 1.619909562677804615e+03
1.901901999999999816e+03 1.687481731816754291e+03
2.002002099999999928e+03 1.788579430973631133e+03
2.102102200000000266e+03 1.830931117380674777e+03
2.202202299999999923e+03 2.050463614065743968e+03
2.302302400000000034e+03 1.925677872546646313e+03
2.402402500000000146e+03 2.052145528803327124e+03
2.502502600000000257e+03 2.256545221962147480e+03
2.602602700000000368e+03 2.208382059152868351e+03
2.702702800000000025e+03 2.367802055684676361e+03
2.802802900000000136e+03 2.440137112794914628e+03
2.902903000000000247e+03 2.379986693975191429e+03
3.003003099999999904e+03 2.424708090730720414e+03
3.103103200000000015e+03 2.526643967794383570e+03
3.203203300000000127e+03 2.517911389073018654e+03
3.303303400000000238e+03 2.304258330397687587e+03
3.403403500000000349e+03 2.376541586486524466e+03
3.503503600000000006e+03 2.645198948242962615e+03
3.603603700000000117e+03 2.619736867746442385e+03
3.703703800000000228e+03 2.712309681589772936e+03
3.803803899999999885e+03 2.725254613959905782e+03
3.903903999999999996e+03 2.757495303287725619e+03
4.004004100000000108e+03 2.796775418633079425e+03
4.104104199999999764e+03 2.832891375780807266e+03
4.204204300000000330e+03 2.693948903587880068e+03
4.304304399999999987e+03 2.800109060907686853e+03
4.404404499999999643e+03 2.764042845413668601e+03
4.504504600000000210e+03 2.677073372713316076e+03
4.604604699999999866e+03 2.875926122716783539e+03
4.704704800000000432e+03 2.532185352098184921e+03
4.804804900000000089e+03 2.812552399011011403e+03
4.904904999999999745e+03 2.730989021497829071e+03
5.005005100000000311e+03 2.596305543689805745e+03
5.105105199999999968e+03 2.733950816072286671e+03
5.205205300000000534e+03 2.681458516207829689e+03
5.305305400000000191e+03 2.755982886525215235e+03
5.405405499999999847e+03 2.491701676963453338e+03
5.505505600000000413e+03 2.645112373064490384e+03
5.605605700000000070e+03 2.684612765405403934e+03
5.705705799999999726e+03 2.486044808245494096e+03
5.805805900000000292e+03 2.538230687694300741e+03
5.905905999999999949e+03 2.575821076650205669e+03
6.006006099999999606e+03 2.640988486371888939e+03
6.106106200000000172e+03 2.640273535705236554e+03
6.206206299999999828e+03 2.567035975323658931e+03
6.306306400000000394e+03 2.499089648715666044e+03
6.406406500000000051e+03 2.330503975947850449e+03
6.506506599999999708e+03 2.356067538858966600e+03
6.606606700000000274e+03 2.181571715900028721e+03
6.706706799999999930e+03 2.359042781394406120e+03
6.806806900000000496e+03 2.094197899873910501e+03
6.906907000000000153e+03 2.225680878875213239e+03
7.007007099999999809e+03 1.962958154081822613e+03
7.107107200000000375e+03 2.019802376281033276e+03
7.207207300000000032e+03 2.296202257449725494e+03
7.307307399999999689e+03 2.190025845288996152e+03
7.407407500000000255e+03 1.916548174609226635e+03
7.507507599999999911e+03 2.063420727414509656e+03
7.607607699999999568e+03 1.867904929831445543e+03
7.707707800000000134e+03 1.696583724534827525e+03
7.807807899999999790e+03 1.855925428842555675e+03
7.907908000000000357e+03 1.802162840678632847e+03
8.008008100000000013e+03 1.678585464169667375e+03
8.108108199999999670e+03 1.670481352514455239e+03
8.208208299999998417e+03 1.669666828890209445e+03
8.308308399999999892e+03 1.504918210931385829e+03
8.408408499999999549e+03 1.622398634607372514e+03
8.508508599999999205e+03 1.425875520076918747e+03
8.608608699999998862e+03 1.506217031682802372e+03
8.708708799999998519e+03 1.391107367447303204e+03
8.808808899999998175e+03 1.470055017732470105e+03
8.908908999999999651e+03 1.334456636049114877e+03
9.009009099999999307e+03 1.190841540981813978e+03
9.109109199999998964e+03 1.310787459530555225e+03
9.209209299999998620e+03 1.135130107806141950e+03
9.309309399999998277e+03 1.168827830273879044e+03
9.409409499999999753e+03 1.153118209575551418e+03
9.509509599999999409e+03 1.088805644398249115e+03
9.609609699999999066e+03 1.137817760470283019e+03
9.709709799999998722e+03 9.864174261412172200e+02
9.809809899999998379e+03 1.064512931375117432e+03
9.909909999999999854e+03 8.790801267928812877e+02
1.001001009999999951e+04 9.221710891760108098e+02
1.011011019999999917e+04 9.387414921273750679e+02
1.021021029999999882e+04 8.786275723431031111e+02
1.031031039999999848e+04 9.101161474520399679e+02
1.041041049999999996e+04 7.816807954184198479e+02
1.051051059999999961e+04 6.067981450052498076e+02
1.061061069999999927e+04 5.974970267427263479e+02
1.071071079999999893e+04 6.904944634550083720e+02
1.081081089999999858e+04 6.527129363095156123e+02
1.091091099999999824e+04 6.273195209285983083e+02
1.101101109999999971e+04 5.693908023110118393e+02
1.111111119999999937e+04 5.695838391856561884e+02
1.121121129999999903e+04 5.611775126023292160e+02
1.131131139999999868e+04 5.498112556135491786e+02
1.141141149999999834e+04 5.661273958731709399e+02
1.151151159999999982e+04 5.038246726287433148e+02
1.161161169999999947e+04 3.625955780102680706e+02
1.171171179999999913e+04 4.909662001314629833e+02
1.181181189999999879e+04 6.142336063691690242e+02
1.191191199999999844e+04 5.020239970471835704e+02
1.201201209999999810e+04 2.901806923060671579e+02
1.211211219999999958e+04 3.774636982359595549e+02
1.221221229999999923e+04 3.287024990537331064e+02
1.231231239999999889e+04 3.592418732966411881e+02
1.241241249999999854e+04 1.690932054178356339e+02
1.251251259999999820e+04 2.883398524340423137e+02
1.261261269999999968e+04 2.912566012348179925e+02
1.271271279999999933e+04 2.185906202160006728e+02
1.281281289999999899e+04 4.047042736999519548e+02
1.291291299999999865e+04 2.810470982647056530e+02
1.301301309999999830e+04 1.533030192290598563e+02
1.311311319999999978e+04 2.175091454063658034e+02
1.321321329999999944e+04 7.898991849027048318e+01
1.331331339999999909e+04 1.903222825275487367e+02
1.341341349999999875e+04 1.935475552320254735e+02
1.351351359999999841e+04 3.091859156874306223e+02
1.361361369999999988e+04 3.689274810035792029e+01
1.371371379999999954e+04 1.484394211576650662e+02
1.381381389999999919e+04 1.145885005834478108e+02
1.391391399999999885e+04 2.549936150058418889e+02
1.401401409999999851e+04 1.565775690893393062e+02
1.411411419999999816e+04 1.118748490011301868e+02
1.421421429999999964e+04 2.315969435439462529e+02
1.431431439999999930e+04 -3.288382113028154663e+01
1.441441449999999895e+04 1.294737785835938269e+02
1.451451459999999861e+04 -1.397275784634558704e+00
1.461461469999999827e+04 1.796759236599615406e+02
1.471471479999999974e+04 -1.132459143070410335e+01
1.481481489999999940e+04 2.964707487927677931e+01
1.491491499999999905e+04 6.441856050239124443e+01
1.501501509999999871e+04 6.290910885587715029e+01
1.511511519999999837e+04 1.986720963590055078e+01
1.521521529999999802e+04 1.051645212381205852e+02
1.531531539999999950e+04 7.157375168996298953e+01
1.541541549999999916e+04 -8.520694974878114181e+01
1.551551559999999881e+04 4.032664318441460694e+01
1.561561569999999847e+04 4.253933768242637115e+01
1.571571579999999813e+04 1.577578518298504662e+02
1.581581589999999960e+04 1.016210117630563303e+01
1.591591599999999926e+04 -1.091397419247198286e+02
1.601601609999999891e+04 -1.045698989712489038e+02
1.611611619999999857e+04 3.894454793567169304e+01
1.621621629999999823e+04 1.897729510393398868e+02
1.631631639999999970e+04 5.806744481766034482e+01
1.641641649999999936e+04 -1.066969148729180716e+02
1.651651659999999902e+04 1.594130103355419408e+02
1.661661670000000231e+04 7.444035155209725474e+01
1.671671680000000197e+04 -8.238839109073677491e+01
1.681681690000000162e+04 1.250389582059050895e+02
1.691691700000000128e+04 1.349102536391223239e+01
1.701701710000000094e+04 -2.462477602223571296e+02
1.711711720000000059e+04 -5.034832902313139869e+01
1.721721730000000025e+04 -1.007669344857453098e+02
1.731731739999999991e+04 1.796660422652501410e+01
1.741741749999999956e+04 6.261062058696307986e+01
1.751751759999999922e+04 8.308497554394135420e+01
1.761761769999999888e+04 7.672285271329222667e+01
1.771771780000000217e+04 8.543583337654388288e+01
1.781781790000000183e+04 6.669468012385630118e+01
1.791791800000000148e+04 3.634980620549234231e+01
1.801801810000000114e+04 2.690937864176790129e+01
1.811811820000000080e+04 1.004048325881329085e+00
1.821821830000000045e+04 7.216024233604293237e+00
1.831831840000000011e+04 2.815929094164997437e+01
1.841841849999999977e+04 -4.192216574709279797e+01
1.851851859999999942e+04 1.133363122689635674e+02
1.861861869999999908e+04 4.985182037268415911e+00
1.871871880000000237e+04 -9.954412359424235035e+01
1.881881890000000203e+04 1.461136633175314046e+02
1.891891900000000169e+04 3.395635767310915298e+01
1.901901910000000134e+04 -6.841687306805151536e+01
1.911911920000000100e+04 7.694778495230248438e+01
1.921921930000000066e+04 -1.023471476768124404e+02
1.931931940000000031e+04 1.760568223257410736e+01
1.941941949999999997e+04 -1.308471044788405813e+01
1.951951959999999963e+04 1.696048049479215081e+01
1.961961969999999928e+04 -2.190368707803151267e+02
1.971971979999999894e+04 -2.886253132444523573e+01
1.981981990000000224e+04 -1.307599556041437268e+02
1.991992000000000189e+04 -3.361263921158107593e+01
2.002002010000000155e+04 4.270620709010655958e+01
2.012012020000000120e+04 -5.507958718782990815e+00
2.022022030000000086e+04 -2.250028319740200899e+01
2.032032040000000052e+04 -1.743266185135470607e+02
2.042042050000000017e+04 5.737601102152925847e+01
2.052052059999999983e+04 5.154269159350990748e+01
2.062062069999999949e+04 -1.218609167223669942e+02
2.072072079999999914e+04 -1.070563744001573667e+02
2.082082090000000244e+04 -1.659885837675139442e+01
2.092092100000000210e+04 -1.596756001049672591e+02
2.102102110000000175e+04 -7.953853615308356950e+01
2.112112120000000141e+04 7.963101321993104875e+01
2.122122130000000107e+04 -1.154363611442059145e+01
2.132132140000000072e+04 -1.686213301489490846e+01
2.142142150000000038e+04 -6.489796314294085278e+01
2.152152160000000003e+04 1.669533821601075658e+02
2.162162169999999969e+04 1.354946595398331795e+02
2.172172179999999935e+04 -8.009660396639829116e+01
2.182182189999999900e+04 1.218692139546829054e+02
2.192192200000000230e+04 1.943757177111369572e+01
2.202202210000000196e+04 3.050412722163049750e+01
2.212212220000000161e+04 -1.131720828001513723e+02
2.222222230000000127e+04 -9.413060194930147873e+01
2.232232240000000093e+04 1.567154221430257621e+00
2.242242250000000058e+04 1.001559177748593754e+02
2.252252260000000024e+04 -3.881960538258837090e+01
2.262262269999999990e+04 -2.324919891105814429e+02
2.272272279999999955e+04 -6.814751331657700462e+01
2.282282289999999921e+04 2.354589390253505954e+01
2.292292299999999886e+04 -2.527097320384003964e+01
2.302302310000000216e+04 7.405910723875112467e+01
2.312312320000000182e+04 -1.185550667002057992e+02
2.322322330000000147e+04 -8.392210096949243692e+00
2.332332340000000113e+04 -1.446763176077004864e+01
2.342342350000000079e+04 -1.555510809385134223e+02
2.352352360000000044e+04 -2.233910704120019375e+01
2.362362370000000010e+04 6.036054948417070420e+01
2.372372379999999976e+04 3.101003755519808536e+01
2.382382389999999941e+04 -4.502941327658805193e+01
2.392392399999999907e+04 -6.132887379334371047e+01
2.402402409999999873e+04 8.319864878603068803e+01
2.412412420000000202e+04 -5.058986180969673008e+00
2.422422430000000168e+04 1.418884128297548841e+02
2.432432440000000133e+04 1.217741861368128866e+02
2.442442450000000099e+04 -4.549677696824515749e+01
2.452452460000000065e+04 1.072270794452203972e+02
2.462462470000000030e+04 -9.876824503916253661e+01
2.472472479999999996e+04 -2.461602796613735578e+01
2.482482489999999962e+04 -7.722235281201157875e+01
2.492492499999999927e+04 -1.956875428663327341e+02
2.502502509999999893e+04 4.521948969793773898e+01
2.512512520000000222e+04 -3.236019763331095866e+00
2.522522530000000188e+04 3.165560222351855302e+01
2.532532540000000154e+04 2.590054328259251193e+01
2.542542550000000119e+04 -3.938247116889497335e+01
2.552552560000000085e+04 -2.718919988066805260e+01
2.562562570000000051e+04 -3.806069334492228506e+01
2.572572580000000016e+04 -6.886573979295272352e+01
2.582582589999999982e+04 5.803050371115298844e+01
2.592592599999999948e+04 6.647817750621771893e+01
2.602602609999999913e+04 -6.694721051523387700e+01
2.612612619999999879e+04 -8.434243437968403256e+00
2.622622630000000208e+04 -7.499770485451522006e+01
2.632632640000000174e+04 3.804062169735492205e+01
2.642642650000000140e+04 -9.563286889537410218e+01
2.652652660000000105e+04 4.173331687353251596e+01
2.662662670000000071e+04 -8.323257969691221092e+01
2.672672680000000037e+04 -2.292656676810904415e+01
2.682682690000000002e+04 1.101289642985411206e+02
2.692692699999999968e+04 -1.684193669275614695e+02
2.702702709999999934e+04 -8.417180788956855508e+01
2.712712719999999899e+04 -5.373167007471930390e+01
2.722722730000000229e+04 -1.267247257998876790e+02
2.732732740000000194e+04 -8.194979706775928463e+00
2.742742750000000160e+04 -1.972436819642294026e+01
2.752752760000000126e+04 -1.631431284547486484e+02
2.762762770000000091e+04 -4.652014009705731645e+00
2.772772780000000057e+04 -1.865965352975108260e+02
2.782782790000000023e+04 -7.247738718025824767e+01
2.792792799999999988e+04 -9.188847238425185537e+01
2.802802809999999954e+04 -6.255607587003430581e+01
2.812812819999999920e+04 3.903880783591004899e+01
2.822822829999999885e+04 -1.747146958514457822e+02
2.832832840000000215e+04 7.078928151191500717e+01
2.842842850000000180e+04 7.454184182243309920e+01
2.852852860000000146e+04 8.674246809904960287e+01
2.862862870000000112e+04 9.151567421463158780e+01
2.872872880000000077e+04 8.398088359429321770e+01
2.882882890000000043e+04 7.851531299092737015e+01
2.892892900000000009e+04 -6.289809380681785456e+01
2.902902909999999974e+04 -1.359585114058986477e+01
2.912912919999999940e+04 -1.748591386262545555e+01
2.922922929999999906e+04 -2.639453004973782058e+01
2.932932939999999871e+04 -1.435462176915813082e+01
2.942942950000000201e+04 -4.443841970738820635e+01
2.952952960000000166e+04 4.924480870164629920e+01
2.962962970000000132e+04 1.537274139717107744e+02
2.972972980000000098e+04 -1.227520896611490286e+02
2.982982990000000063e+04 1.501801478303691226e+02
2.992993000000000029e+04 -8.805058256110451964e+01
3.003003009999999995e+04 -6.514054255794587789e+01
3.013013019999999960e+04 5.208735363344013791e+01
3.023023029999999926e+04 -5.458821286816252183e+01
3.033033039999999892e+04 9.810975551430585995e+01
3.043043049999999857e+04 -2.134130068032177689e+02
3.053053060000000187e+04 5.704689389575254665e+01
3.063063070000000153e+04 -3.766119267631170686e+01
3.073073080000000118e+04 -8.853831440881562287e+01
3.083083090000000084e+04 -1.109645102910291392e+01
3.093093100000000049e+04 1.687956131509524766e+02
3.103103110000000015e+04 1.081163918267074564e+01
3.113113119999999981e+04 3.696610606560962964e+00
3.123123129999999946e+04 -4.449418210602514279e+01
3.133133139999999912e+04 -1.719252592409419833e+02
3.143143149999999878e+04 7.983422927296997784e+01
3.153153160000000207e+04 7.669118568407495218e+01
3.163163170000000173e+04 -7.627829019571349534e+01
3.173173180000000139e+04 -1.160143257588859171e+02
3.183183190000000104e+04 -8.292212397009360814e+01
3.193193200000000070e+04 7.302293213732268384e+01
3.203203210000000036e+04 -8.258649595303666047e+01
3.213213220000000001e+04 -1.194055590556759512e+02
3.223223229999999967e+04 -1.580063237832789582e+02
3.233233239999999932e+04 -1.385207971972906016e+01
3.243243249999999898e+04 4.929399376725868365e+01
3.253253259999999864e+04 1.009520747387453241e+02
3.263263270000000193e+04 -4.138661681359633349e+01
3.273273280000000159e+04 8.527957872983630239e+01
3.283283289999999397e+04 3.054730061896858118e+01
3.293293299999999726e+04 1.765279154310728131e+02
3.303303309999999328e+04 -3.120669207298235648e+01
3.313313319999999658e+04 -3.815392074383735377e+01
3.323323329999999987e+04 -2.213642315668159100e+01
3.333333339999999589e+04 1.070696745728014605e+02
3.343343349999999919e+04 -9.329912206464437929e+01
3.353353359999999520e+04 4.189448882929216467e+01
3.363363369999999850e+04 1.203503874569979359e+02
3.373373379999999452e+04 5.402026568394242645e+01
3.383383389999999781e+04 1.984091571609794258e+01
3.393393399999999383e+04 -1.457505664133618097e+02
3.403403409999999712e+04 2.674786044107793526e+00
3.413413419999999314e+04 5.157185382777683458e+00
3.423423429999999644e+04 -6.725687410431021362e+00
3.433433439999999973e+04 -7.590064026810557607e+01
3.443443449999999575e+04 4.780052573167255048e+01
3.453453459999999905e+04 1.372555029131498294e+01
3.463463469999999506e+04 -7.704379616463799607e+01
3.473473479999999836e+04 2.038577736394472595e+01
3.483483489999999438e+04 -5.047471433304602328e+01
3.493493499999999767e+04 -6.282102545363311918e+01
3.503503509999999369e+04 -5.314683478508044345e+01
3.513513519999999698e+04 -4.874693674600342774e+01
3.523523529999999300e+04 2.925949637443452289e+01
3.533533539999999630e+04 9.521420627206414622e+01
3.543543549999999959e+04 7.712796251137642400e+01
3.553553559999999561e+04 -2.813040284893129694e+01
3.563563569999999891e+04 -3.765601921303237987e+01
3.573573579999999492e+04 -1.781858531081846664e+01
3.583583589999999822e+04 -7.604411338024642930e+01
3.593593599999999424e+04 3.585973327614509287e+01
3.603603609999999753e+04 1.145216902616588044e+02
3.613613619999999355e+04 -2.810297710338408805e+01
3.623623629999999685e+04 -2.901927439178146884e+01
3.633633640000000014e+04 -4.964016168287632524e+01
3.643643649999999616e+04 -4.526254925100485216e-01
3.653653659999999945e+04 -1.355853617167217635e+02
3.663663669999999547e+04 3.484919432751127033e+01
3.673673679999999877e+04 1.326875341719672896e+01
3.683683689999999478e+04 -1.713064188517814443e+02
3.693693699999999808e+04 1.532059154551621987e+02
3.703703709999999410e+04 3.117499476269209424e+01
3.713713719999999739e+04 -3.235663824415151169e+01
3.723723729999999341e+04 -1.031505412018077976e+02
3.733733739999999671e+04 -3.585083671915058545e+01
3.743743750000000000e+04 -9.451164408504706671e+01
3.753753759999999602e+04 -9.609871535370412232e+01
3.763763769999999931e+04 1.773243867758033332e+02
3.773773779999999533e+04 4.556315142784378480e+01
3.783783789999999863e+04 -3.257966974125523052e+01
3.793793799999999464e+04 -1.405860129849978932e+02
3.803803809999999794e+04 -5.544670883386240234e+01
3.813813819999999396e+04 8.352610733507015084e+01
3.823823829999999725e+04 2.159952124795978179e+01
3.833833839999999327e+04 -1.418599346446694938e+02
3.843843849999999657e+04 6.745749445518169018e+00
3.853853859999999986e+04 1.357485184938185263e+01
3.863863869999999588e+04 2.705451812281076229e+01
3.873873879999999917e+04 -5.141133649698225128e+01
3.883883889999999519e+04 -2.468335689587065218e+01
3.893893899999999849e+04 5.601627656978821257e+00
3.903903909999999451e+04 3.476690138265379204e+01
3.913913919999999780e+04 -6.555508023372355808e+01
3.923923929999999382e+04 -1.684050263132881042e+01
3.933933939999999711e+04 1.547362475041342407e+02
3.943943949999999313e+04 -1.431112555599133884e+02
3.953953959999999643e+04 2.208142663097290459e+00
3.963963969999999972e+04 -6.236804280623864827e+01
3.973973979999999574e+04 -5.280751945242691647e+01
3.983983989999999903e+04 -1.382659412326859467e+02
3.993993999999999505e+04 -3.391682003164910242e+01
4.004004009999999835e+04 -3.968452635594975675e+01
4.014014019999999437e+04 2.026161069527990932e+01
4.024024029999999766e+04 -1.314046857561732784e+00
4.034034039999999368e+04 5.265694484442644097e+01
4.044044049999999697e+04 -7.097576335065970454e+01
4.054054059999999299e+04 2.320242077637842897e+02
4.064064069999999629e+04 1.510242000906814894e+02
4.074074079999999958e+04 -2.392931808264546021e+02
4.084084089999999560e+04 -6.705252405451790310e+01
4.094094099999999889e+04 -4.973047861553057203e+01
4.104104109999999491e+04 8.778589985906671700e+01
4.114114119999999821e+04 5.585791961820316232e+01
4.124124129999999423e+04 -2.122870271623501282e+01
4.134134139999999752e+04 3.348164720894856838e+00
4.144144149999999354e+04 -7.882548524045810723e+01
4.154154159999999683e+04 -1.355377709482454236e+02
4.164164170000000013e+04 -9.018203180417046383e+01
4.174174179999999615e+04 4.715177824925523709e+01
4.184184189999999944e+04 -9.602640969734977716e+01
4.194194199999999546e+04 -6.616794350966043226e+01
4.204204209999999875e+04 -3.450727941560601408e+01
4.214214219999999477e+04 3.114135110301365117e+01
4.224224229999999807e+04 1.470802225892142587e+02
4.234234239999999409e+04 -1.133301582856809233e+02
4.244244249999999738e+04 1.710484809749053454e+02
4.254254259999999340e+04 -9.932583649138099702e+01
4.264264269999999669e+04 -4.903888899944848845e+01
4.274274279999999999e+04 3.379710474825555622e+01
4.284284289999999601e+04 5.359457441060556704e+01
4.294294299999999930e+04 -2.190750587776221039e+02
4.304304309999999532e+04 1.981275594147101415e+01
4.314314319999999861e+04 -1.082924258293614486e+02
4.324324329999999463e+04 -9.810309353342097438e+01
4.334334339999999793e+04 -4.963863565064804106e+01
4.344344349999999395e+04 8.013266660105664130e+01
4.354354359999999724e+04 -1.520967994643024497e+02
4.364364369999999326e+04 -4.947943252203373277e+01
4.374374379999999655e+04 1.840373871703258715e+02
4.384384389999999985e+04 -5.068902620624319155e+01
4.394394399999999587e+04 -7.508426511111625246e+01
4.404404409999999916e+04 2.139087975924496732e+00
4.414414419999999518e+04 -6.347168999119450206e+01
4.424424429999999847e+04 3.770175744115164918e+01
4.434434439999999449e+04 -1.882312390334073200e+02
4.444444449999999779e+04 -2.882127328246479792e+01
4.454454459999999381e+04 -1.523783701468474590e+02
4.464464469999999710e+04 -1.974548294863049875e+02
4.474474479999999312e+04 -1.495881012968309278e+02
4.484484489999999641e+04 -8.748854440008651068e+01
4.494494499999999971e+04 5.729831755606038257e+01
4.504504509999999573e+04 -4.381378840190509294e+01
4.514514519999999902e+04 1.467121703013985723e+01
4.524524529999999504e+04 -1.316507899698370920e+01
4.534534539999999834e+04 -6.780923800558358749e+00
4.544544549999999435e+04 -3.280303322805277144e+00
4.554554559999999765e+04 2.679748950870074609e+01
4.564564569999999367e+04 -3.928259204908025737e+01
4.574574579999999696e+04 7.943537673552206968e+01
4.584584589999999298e+04 -2.416244711265129865e+02
4.594594599999999627e+04 1.293049241163535896e+02
4.604604609999999957e+04 1.408803918131390844e+02
4.614614619999999559e+04 -1.132620147898360869e+02
4.624624629999999888e+04 -9.813023760483355318e+01
4.634634639999999490e+04 -4.484350266298650922e+01
4.644644649999999820e+04 1.403967086655436276e+02
4.654654659999999421e+04 6.473234785887640896e+01
4.664664669999999751e+04 4.652591057731573443e+01
4.674674679999999353e+04 -8.351671634796980470e+01
4.684684689999999682e+04 1.087258824809856463e+02
4.694694699999999284e+04 -1.043830809586384447e+02
4.704704709999999614e+04 -3.104293028123608167e+01
4.714714719999999943e+04 -2.099410880046813759e+02
4.724724729999999545e+04 -4.817397454559904446e+01
4.734734739999999874e+04 -4.686301702937500369e-01
4.744744749999999476e+04 3.113953917833060459e+01
4.754754759999999806e+04 -2.798941554746801330e+02
4.764764769999999407e+04 -9.561734103516377559e+01
4.774774779999999737e+04 1.224181011438360258e+02
4.784784789999999339e+04 -1.876923133619748540e+01
4.794794799999999668e+04 -1.142927095456577291e+01
4.804804809999999270e+04 -2.077159299639550838e+01
4.814814819999999600e+04 4.890661491025738172e+01
4.824824829999999929e+04 -2.214569420219292226e+02
4.834834839999999531e+04 -1.011860091053725483e+02
4.844844849999999860e+04 5.041437465619258518e+01
4.854854859999999462e+04 -1.344798795188719396e+02
4.864864869999999792e+04 -1.250275531022771531e+02
4.874874879999999393e+04 -4.678218960471616583e+01
4.884884889999999723e+04 1.902129021409487279e+02
4.894894899999999325e+04 5.213568654956426229e+01
4.904904909999999654e+04 -1.804970463434359544e+02
4.914914919999999984e+04 1.553311832048525076e+01
4.924924929999999586e+04 3.819569293175027980e+01
4.934934939999999915e+04 6.111291723155207478e+01
4.944944949999999517e+04 -8.993023501027811051e+01
4.954954959999999846e+04 1.416300909275456377e+02
4.964964969999999448e+04 1.262467253314034110e+01
4.974974979999999778e+04 -1.843893075959811370e+02
4.984984989999999380e+04 -1.829981746453460545e+01
4.994994999999999709e+04 -1.132351430464687070e+02
5.005005009999999311e+04 -1.725462208016961654e+02
5.015015019999999640e+04 1.201752915580215664e+01
5.025025029999999970e+04 -4.888945071884451465e+01
5.035035039999999572e+04 -8.128171888678743073e+01
5.045045049999999901e+04 1.764623264810790317e+02
5.055055059999999503e+04 -9.694580227429442232e+01
5.065065069999999832e+04 -1.443890165561005574e+02
5.075075079999999434e+04 -7.706455641856348393e+01
5.085085089999999764e+04 7.389588128715017490e+01
5.095095099999999366e+04 6.262251587719188706e+01
5.105105109999999695e+04 -1.225781983302617277e+02
5.115115119999999297e+04 9.056141979633495964e+01
5.125125129999999626e+04 6.274736301226317181e+01
5.135135139999999956e+04 1.014063895103498538e+02
5.145145149999999558e+04 -5.480629935859118262e+01
5.155155159999999887e+04 -2.021777225602513184e+01
5.165165169999999489e+04 -5.784699890034497827e+01
5.175175179999999818e+04 -2.169431432717269104e+02
5.185185189999999420e+04 -4.354746405098362771e+01
5.195195199999999750e+04 -9.523392718034740767e+01
5.205205209999999352e+04 -1.382331361752998866e+01
5.215215219999999681e+04 -2.585315732232489339e+01
5.225225229999999283e+04 -5.253950347044897740e+01
5.235235239999999612e+04 1.326807249663160633e+02
5.245245249999999942e+04 7.640079499789855788e+01
5.255255259999999544e+04 -1.447674973792263700e+02
5.265265269999999873e+04 -1.674775136076518720e+02
5.275275279999999475e+04 1.008894352048576053e+02
5.285285289999999804e+04 -1.109302708678206386e+02
5.295295299999999406e+04 8.602486525950105545e+01
5.305305309999999736e+04 -5.327004541745044008e+01
5.315315319999999338e+04 2.087791510873283016e+02
5.325325329999999667e+04 4.712171937079231299e+01
5.335335339999999269e+04 1.186162577990289577e+02
5.345345349999999598e+04 -3.937695567736129476e+01
5.355355359999999928e+04 1.035980529895028468e+02
5.365365369999999530e+04 2.195025042250875202e+01
5.375375379999999859e+04 8.558039465464275963e+01
5.385385389999999461e+04 3.436250234432635864e+01
5.395395399999999790e+04 5.550417984928193960e+01
5.405405409999999392e+04 -1.065022347492475348e+02
5.415415419999999722e+04 3.694015534645337340e+01
5.425425429999999324e+04 6.121296349841212958e+00
5.435435439999999653e+04 1.092958513141047945e+02
5.445445449999999983e+04 6.813580390461055458e+01
5.455455459999999584e+04 7.070131056163961603e+01
5.465465469999999914e+04 -1.092266243100026912e+02
5.475475479999999516e+04 1.747389973614360414e+01
5.485485489999999845e+04 -4.016336153827122502e-01
5.495495499999999447e+04 -1.030774490568190203e+02
5.505505509999999776e+04 8.177204944898129213e+01
5.515515519999999378e+04 -2.730945924941018887e+01
5.525525529999999708e+04 4.803476869378924619e+01
5.535535539999999310e+04 4.093479084134094848e+01
5.545545549999999639e+04 9.780890023158643487e+01
5.555555559999999969e+04 1.652875323945637547e+02
5.565565569999999570e+04 -2.823065466641148547e+01
5.575575579999999900e+04 3.286441610055862128e+01
5.585585589999999502e+04 -2.251159498182528580e+02
5.595595599999999831e+04 -9.080807047635788365e+01
5.605605609999999433e+04 -1.840906831356352882e+02
5.615615619999999763e+04 -8.073240828784970802e+01
5.625625629999999364e+04 -1.148996235933173296e+02
5.635635639999999694e+04 -1.278057126421836074e+02
5.645645649999999296e+04 6.204680723404960929e+01
5.655655659999999625e+04 -1.566521046470603267e+02
5.665665669999999955e+04 -7.293772821607446133e+01
5.675675679999999556e+04 1.358354480170375211e+02
5.685685689999999886e+04 -9.979892127298114701e+01
5.695695699999999488e+04 1.286584333760055188e+02
5.705705709999999817e+04 4.140422475956354731e+01
5.715715719999999419e+04 1.473788917362271036e+02
5.725725729999999749e+04 9.790253231541801160e-02
5.735735739999999350e+04 -7.971447619755342373e+01
5.745745749999999680e+04 -3.724801114654562895e+01
5.755755759999999282e+04 1.270344694331061390e+02
5.765765769999999611e+04 -2.868415992266689685e+01
5.775775779999999941e+04 2.208884336731274232e+02
5.785785789999999542e+04 7.022144696029735655e+01
5.795795799999999872e+04 8.821452825262777253e+01
5.805805809999999474e+04 1.816123540845667961e+01
5.815815819999999803e+04 1.504164567597297548e+02
5.825825829999999405e+04 1.752114417606387917e+02
5.835835839999999735e+04 7.650315330035782324e+01
5.845845849999999336e+04 -1.989568412080935644e+01
5.855855859999999666e+04 -3.759829962696360273e+00
5.865865869999999268e+04 -3.393611441579692212e+01
5.875875879999999597e+04 1.694692995584156847e+02
5.885885889999999927e+04 6.121352427675813601e+01
5.895895899999999529e+04 4.188551250023395767e+01
5.905905909999999858e+04 2.306794907291482275e+02
5.915915919999999460e+04 -1.248277313016366747e+02
5.925925929999999789e+04 8.476622296479530405e+01
5.935935939999999391e+04 9.881493273785487474e+01
5.945945949999999721e+04 -1.043101239785360121e+02
5.955955959999999322e+04 6.738479033590971312e+01
5.965965969999999652e+04 1.865809757970677083e+02
5.975975979999999254e+04 1.101396218486391518e+02
5.985985989999999583e+04 -4.651305734997271202e+01
5.995995999999999913e+04 5.479984270092494114e+01
6.006006009999999515e+04 7.419073786979764407e+01
6.016016019999999844e+04 9.500290390504247284e+01
6.026026029999999446e+04 -1.493289387748148727e+02
6.036036039999999775e+04 -3.127423122360205525e+02
6.046046049999999377e+04 -9.428111650351382877e+01
6.056056059999999707e+04 -3.716986365150575011e+01
6.066066069999999308e+04 3.686741884302902861e+01
6.076076079999999638e+04 3.069770950653160568e+01
6.086086089999999240e+04 6.452782072827864113e+01
6.096096099999999569e+04 -1.802421293360018595e+01
6.106106109999999899e+04 2.054312227709912975e+02
6.116116119999999501e+04 -1.817419383355376397e+02
6.126126129999999830e+04 1.140201404033689130e+02
6.136136139999999432e+04 -1.249195650754878244e+02
6.146146149999999761e+04 -3.963109315124575005e+01
6.156156159999999363e+04 -3.078643642549605630e+01
6.166166169999999693e+04 1.842276616275449328e+02
6.176176179999999295e+04 6.039494837582139120e+00
6.186186189999999624e+04 2.587561508398112498e+00
6.196196199999999953e+04 2.013587487026692884e+02
6.206206209999999555e+04 -4.560423171520884011e+01
6.216216219999999885e+04 1.153886327345854568e+02
6.226226229999999487e+04 -6.799970874389219944e+01
6.236236239999999816e+04 3.667574399591917711e+01
6.246246249999999418e+04 8.197844273584205155e+01
6.256256259999999747e+04 -3.682457621100923006e+01
6.266266269999999349e+04 2.046870351340526994e+01
6.276276279999999679e+04 -1.356970090350410274e+01
6.286286289999999281e+04 -1.290741166325141442e+01
6.296296299999999610e+04 -8.920108194902270782e+01
6.306306309999999939e+04 1.327872816346986724e+02
6.316316319999999541e+04 1.032534962222559294e+01
6.326326329999999871e+04 -6.215021404872784316e+00
6.336336339999999473e+04 -4.500883348198363620e+01
6.346346349999999802e+04 1.295205759545724504e+02
6.356356359999999404e+04 9.433918047546706021e+01
6.366366369999999733e+04 4.216143340829459873e+01
6.376376379999999335e+04 7.886540262951825753e+01
6.386386389999999665e+04 5.826806456022988101e+01
6.396396399999999267e+04 -7.607961429200949510e+01
6.406406409999999596e+04 -5.880229523947646442e+01
6.416416419999999925e+04 2.237697621602278275e+01
6.426426429999999527e+04 1.653386645148583227e+02
6.436436439999999857e+04 3.292106085117697489e+01
6.446446449999999459e+04 -1.940266475311872796e+01
6.456456459999999788e+04 5.782637753159092142e+01
6.466466469999999390e+04 -1.009686547441873188e+02
6.476476479999999719e+04 2.246307117863591714e+02
6.486486489999999321e+04 -4.701983337984265887e+01
6.496496499999999651e+04 1.057252588606605315e+02
6.506506509999999253e+04 -8.459709083013831332e+01
6.516516519999999582e+04 5.798920991011365800e+01
6.526526529999999912e+04 4.266929477038646468e+01
6.536536539999999513e+04 -2.449814429111896175e+02
6.546546549999999843e+04 1.556557874104633399e+01
6.556556560000000172e+04 2.721493832254087764e+01
6.566566569999999774e+04 1.057189955884004178e+02
6.576576580000000831e+04 -2.903697339437897984e+00
6.586586590000000433e+04 -1.972660326302914058e+01
6.596596600000000035e+04 1.094938032743126826e+02
6.606606609999999637e+04 6.950540198298391203e+01
6.616616620000000694e+04 -7.141746722893443922e-01
6.626626630000000296e+04 -1.169903647484971287e+02
6.636636639999999898e+04 -8.020287709124551156e+01
6.646646650000000955e+04 5.832227010977592130e+01
6.656656660000000556e+04 -3.833468377220964385e+01
6.666666670000000158e+04 1.854022246689437026e+01
6.676676679999999760e+04 8.127626632714394361e+01
6.686686690000000817e+04 -1.435321158153248007e+02
6.696696700000000419e+04 8.164568707503383393e+01
6.706706710000000021e+04 1.168807113357924976e+02
6.716716719999999623e+04 7.425519570645919032e+01
6.726726730000000680e+04 -5.623799327412836391e+01
6.736736740000000282e+04 -8.903009560739151951e+00
6.746746749999999884e+04 -1.005608301530538569e+02
6.756756760000000941e+04 -6.908626635076306854e+01
6.766766770000000542e+04 5.938115954585816780e+01
6.776776780000000144e+04 -1.517991114509840713e+02
6.786786789999999746e+04 6.813123530869619060e+01
6.796796800000000803e+04 -5.677436758417143636e+01
6.806806810000000405e+04 4.878872944954712132e+00
6.816816820000000007e+04 1.045753544337976422e+02
6.826826829999999609e+04 -1.397794728700300482e+02
6.836836840000000666e+04 -1.052883122446888819e+01
6.846846850000000268e+04 -9.414380717704460722e+01
6.856856859999999870e+04 2.885698658267212124e+01
6.866866870000000927e+04 -1.706640474167665644e+01
6.876876880000000529e+04 8.078932679741869549e+01
6.886886890000000130e+04 -1.389064480297452349e+02
6.896896899999999732e+04 3.891947379633861459e+01
6.906906910000000789e+04 4.471958603576521085e+01
6.916916920000000391e+04 -1.324794731677371544e+02
6.926926929999999993e+04 6.319725339224873295e+01
6.936936939999999595e+04 -9.519124679542485978e+01
6.946946950000000652e+04 9.702511159291998410e+01
6.956956960000000254e+04 -1.023927784825779526e+02
6.966966969999999856e+04 2.262536115841465190e+01
6.976976980000000913e+04 -1.757677609561167476e+00
6.986986990000000515e+04 6.460762046689117710e+01
6.996997000000000116e+04 6.995820088162011530e+01
7.007007009999999718e+04 -6.224989875050286514e+01
7.017017020000000775e+04 -1.948196877603053778e+01
7.027027030000000377e+04 -7.653034391774829714e+01
7.037037039999999979e+04 -3.288481305741257898e+01
7.047047049999999581e+04 9.700993609648357108e+00
7.057057060000000638e+04 -3.124674672267679298e+01
7.067067070000000240e+04 1.320626576243195416e+01
7.077077079999999842e+04 7.181690770547977820e+01
7.087087090000000899e+04 -7.864017146159014260e+01
7.097097100000000501e+04 2.241329402274767801e+01
7.107107110000000102e+04 -1.830625577590419937e+02
7.117117119999999704e+04 1.104504999732077692e+02
7.127127130000000761e+04 -5.624611578788619681e+01
7.137137140000000363e+04 -1.784897912196174019e+01
7.147147149999999965e+04 -2.068975867136263673e+02
7.157157160000001022e+04 6.614155938123904832e+01
7.167167170000000624e+04 -2.188930130696678873e+02
7.177177180000000226e+04 -1.293303287431511706e+02
7.187187189999999828e+04 -4.911408852369130784e+01
7.197197200000000885e+04 -4.805655068358345439e+00
7.207207210000000487e+04 -8.660132803726794748e+01
7.217217220000000088e+04 4.273391329567282781e+01
7.227227229999999690e+04 9.841010304500697359e+00
7.237237240000000747e+04 7.507394560494572433e-01
7.247247250000000349e+04 -2.898450824830888095e+01
7.257257259999999951e+04 4.058556405534176292e+01
7.267267270000001008e+04 2.076922975779882918e+01
7.277277280000000610e+04 4.971003062983492526e+01
7.287287290000000212e+04 -1.858704309944375410e+01
7.297297299999999814e+04 9.995694891241814162e+01
7.307307310000000871e+04 -5.855712692483633219e+01
7.317317320000000473e+04 -9.213078029696674776e+01
7.327327330000000075e+04 -6.142911921609499615e+01
7.337337339999999676e+04 1.825048799372540032e+02
7.347347350000000733e+04 7.819652917903022171e+01
7.357357360000000335e+04 1.306347606170954236e+02
7.367367369999999937e+04 -1.359776109032053455e+02
7.377377380000000994e+04 -3.610736156253422990e+01
7.387387390000000596e+04 -4.529794322525730621e+01
7.397397400000000198e+04 1.174124854538153357e+02
7.407407409999999800e+04 6.393462685429058823e+00
7.417417420000000857e+04 1.784895841306281739e+02
7.427427430000000459e+04 -1.239493270635214657e+02
7.437437440000000061e+04 -1.039586099160067434e+01
7.447447449999999662e+04 -2.592946554478447041e+01
7.457457460000000719e+04 -1.249504132830554965e+02
7.467467470000000321e+04 -8.360160641233191825e+01
7.477477479999999923e+04 -1.187226012100298647e+02
7.487487490000000980e+04 2.777953643305982112e+01
7.497497500000000582e+04 -9.695868425002508673e+01
7.507507510000000184e+04 2.275863001504643819e+02
7.517517519999999786e+04 -4.958086642902249253e+01
7.527527530000000843e+04 -1.105577848901356504e+02
7.537537540000000445e+04 9.820798409135691998e+01
7.547547550000000047e+04 2.433931716431830239e+02
7.557557559999999648e+04 -8.352788161297270619e+01
7.567567570000000705e+04 -1.035947041303436578e+02
7.577577580000000307e+04 -4.962566309491776195e+01
7.587587589999999909e+04 1.647398854536799462e+01
7.597597600000000966e+04 1.535822849835593615e+02
7.607607610000000568e+04 1.555433151491219803e+02
7.617617620000000170e+04 -7.099295891539142644e+01
7.627627629999999772e+04 5.605829964138132837e+00
7.637637640000000829e+04 1.781957044279583897e+02
7.647647650000000431e+04 1.311779385242608598e+01
7.657657660000000033e+04 2.975869898168880212e+01
7.667667669999999634e+04 8.438970930369083590e+01
7.677677680000000692e+04 -9.570756994867053891e+01
7.687687690000000293e+04 -3.503275697085764762e+01
7.697697699999999895e+04 -4.963052111181551851e+01
7.707707710000000952e+04 -2.759039914501146882e+02
7.717717720000000554e+04 1.086944702279641177e+02
7.727727730000000156e+04 1.863806083101283306e+01
7.737737739999999758e+04 3.838139490937147258e+01
7.747747750000000815e+04 1.801114278226916099e+02
7.757757760000000417e+04 1.245982385537580228e+02
7.767767770000000019e+04 -2.427451903574930441e+02
7.777777779999999620e+04 1.653846121722833118e+02
7.787787790000000678e+04 1.106432435201362381e+02
7.797797800000000279e+04 -1.583886936316503125e+02
7.807807809999999881e+04 7.101356765624822742e+01
7.817817820000000938e+04 1.406055843320575036e+02
7.827827830000000540e+04 2.257655407653713553e+01
7.837837840000000142e+04 1.281027020207040437e+02
7.847847849999999744e+04 8.055286877492184772e+01
7.857857860000000801e+04 8.626829276580791372e+01
7.867867870000000403e+04 3.473416464688912697e+01
7.877877880000000005e+04 -5.717362067854434571e+01
7.887887889999999607e+04 -3.698930885352066156e+01
7.897897900000000664e+04 -6.986134089625799959e+01
7.907907910000000265e+04 -2.105572764252619322e+02
7.917917919999999867e+04 8.018801872081658644e+01
7.927927930000000924e+04 -5.882933841285237264e+01
7.937937940000000526e+04 1.203698869147623753e+02
7.947947950000000128e+04 1.361615165741669955e+02
7.957957959999999730e+04 1.590696087048487186e+02
7.967967970000000787e+04 2.601744406367511715e+02
7.977977980000000389e+04 3.191329664707332654e+02
7.987987989999999991e+04 -4.505971097837421979e+01
7.997997999999999593e+04 1.627944563715626600e+02
8.008008010000000650e+04 6.200053947938643262e+01
8.018018020000000251e+04 -7.988426596759758525e+01
8.028028029999999853e+04 2.894093040790207638e+01
8.038038040000000910e+04 2.306837386407944024e+01
8.048048050000000512e+04 -2.248449884635245510e+01
8.058058060000000114e+04 -4.798659277956992497e+01
8.068068069999999716e+04 1.228888327014180959e+01
8.078078080000000773e+04 2.637464511975014503e+01
8.088088090000000375e+04 -1.864105006187784142e+01
8.098098099999999977e+04 9.381025816023945652e+01
8.108108109999999579e+04 -4.574049594262294249e+01
8.118118120000000636e+04 -5.312163005861811627e+01
8.128128130000000237e+04 -1.235714191765364234e+02
8.138138139999999839e+04 4.510216845510318251e+01
8.148148150000000896e+04 -1.051483910076598605e+01
8.158158160000000498e+04 9.718176087238425964e+00
8.168168170000000100e+04 -7.541291319300357898e+00
8.178178179999999702e+04 -1.190958033694525398e+02
8.188188190000000759e+04 4.217079360782393138e+01
8.198198200000000361e+04 1.130847721813558451e+02
8.208208209999999963e+04 -1.492095955934259166e+02
8.218218219999999565e+04 -9.002789982430266491e+01
8.228228230000000622e+04 2.763507081702677937e+01
8.238238240000000224e+04 1.982317765060174111e+02
8.248248249999999825e+04 -1.123319995516509806e+02
8.258258260000000882e+04 -2.302942867196991870e+02
8.268268270000000484e+04 -4.483504566520753087e+01
8.278278280000000086e+04 -6.685788953580460259e+01
8.288288289999999688e+04 2.627622606463370758e+01
8.298298300000000745e+04 6.352287756718739331e+01
8.308308310000000347e+04 9.757017316706374288e+01
8.318318319999999949e+04 4.521814296439702474e+01
8.328328330000001006e+04 2.261566721603885455e+01
8.338338340000000608e+04 1.656079524502829941e+02
8.348348350000000210e+04 -8.008829813592538471e+01
8.358358359999999811e+04 -5.639966910494148777e+01
8.368368370000000868e+04 1.379702876065270516e+02
8.378378380000000470e+04 -7.967023879057332181e+01
8.388388390000000072e+04 -5.023183021779680502e+01
8.398398399999999674e+04 4.098794921417442083e+01
8.408408410000000731e+04 -3.824142701581884296e+01
8.418418420000000333e+04 9.376448032655424925e+01
8.428428429999999935e+04 -1.371805533978817664e+02
8.438438440000000992e+04 -2.210159182786294352e+01
8.448448450000000594e+04 4.559930531837194678e+01
8.458458460000000196e+04 1.462045932699506068e+01
8.468468469999999797e+04 1.659712809841385592e+02
8.478478480000000854e+04 1.820109036326877217e+01
8.488488490000000456e+04 6.373129620359620162e+01
8.498498500000000058e+04 -1.493990683210401826e+01
8.508508509999999660e+04 3.202183534837691923e+02
8.518518520000000717e+04 -1.001009038129282658e+02
8.528528530000000319e+04 2.929394011427605093e+01
8.538538539999999921e+04 -2.578723373072883263e+01
8.548548550000000978e+04 1.474525792102271566e+02
8.558558560000000580e+04 -1.215970384626127156e+02
8.568568570000000182e+04 8.822544122307624548e+01
8.578578579999999783e+04 1.088631396527068862e+00
8.588588590000000841e+04 -1.043809654607866406e+02
8.598598600000000442e+04 1.231235225245298324e+02
8.608608610000000044e+04 -2.220605287367598635e+02
8.618618619999999646e+04 -1.648798906390810259e+02
8.628628630000000703e+04 -8.733588567145919512e+01
8.638638640000000305e+04 1.072099226545611259e+02
8.648648649999999907e+04 1.705205814576586363e+02
8.658658660000000964e+04 -8.368102134401610215e+01
8.668668670000000566e+04 5.110948620304994705e+01
8.678678680000000168e+04 1.553787589380293355e+01
8.688688689999999769e+04 -3.211323439184685924e+01
8.698698700000000827e+04 -3.766859183021058044e+01
8.708708710000000428e+04 -1.927820653124416879e+02
8.718718720000000030e+04 7.599641120115721549e+01
8.728728729999999632e+04 8.489678539946416436e+01
8.738738740000000689e+04 -3.848091167492871989e+01
8.748748750000000291e+04 6.483407097994081880e+01
8.758758759999999893e+04 -1.207045525274022708e+02
8.768768770000000950e+04 1.644353753621529393e+02
8.778778780000000552e+04 -2.254092785871225431e+02
8.788788790000000154e+04 -1.597454084935156970e+02
8.798798799999999756e+04 -2.267870277533904044e+01
8.808808810000000813e+04 -8.758929953769207088e+01
8.818818820000000414e+04 1.524476170869087355e+02
8.828828830000000016e+04 9.764666232501669185e+01
8.838838839999999618e+04 -1.968457936639159556e+01
8.848848850000000675e+04 -7.287959187873701694e+01
8.858858860000000277e+04 -1.110014432913889948e+02
8.868868869999999879e+04 -1.347051131990121178e+02
8.878878880000000936e+04 6.421908086512203795e+01
8.888888890000000538e+04 3.096058080852106542e+01
8.898898900000000140e+04 -6.665899638114134973e+01
8.908908909999999742e+04 5.393106863624383607e+01
8.918918920000000799e+04 -2.928116439674138149e+01
8.928928930000000400e+04 -1.602400717937922252e+02
8.938938940000000002e+04 -1.737884424886180454e+02
8.948948949999999604e+04 -1.207474959099884728e+02
8.958958960000000661e+04 -4.623364233591649963e+01
8.968968970000000263e+04 -4.289430544074222951e+01
8.978978979999999865e+04 -2.422896459874797870e+02
8.988988990000000922e+04 2.045480756792421317e+01
8.998999000000000524e+04 5.583693233458836147e+01
9.009009010000000126e+04 9.611491518848633575e+01
9.019019019999999728e+04 1.530343385448946378e+02
9.029029030000000785e+04 -3.565822970019362259e+01
9.039039040000000386e+04 -9.521655669200930561e+01
9.049049049999999988e+04 1.191376148950546394e+02
9.059059059999999590e+04 1.084514251140854491e+01
9.069069070000000647e+04 -1.209751939417765101e+02
9.079079080000000249e+04 9.263683979445720240e+01
9.089089089999999851e+04 -3.511505540570768602e+01
9.099099100000000908e+04 1.442316411057853998e+02
9.109109110000000510e+04 -9.181562237476053667e+01
9.119119120000000112e+04 5.235070228899662226e+01
9.129129129999999714e+04 -8.797399915763833178e+01
9.139139140000000771e+04 -2.371658095145661207e+02
9.149149150000000373e+04 -2.387194462827367047e+01
9.159159159999999974e+04 -1.370658243060888424e+02
9.169169169999999576e+04 5.819445377506565542e+00
9.179179180000000633e+04 -2.218986469375328896e-01
9.189189190000000235e+04 -1.194462656454514047e+02
9.199199199999999837e+04 7.512323695312504768e+00
9.209209210000000894e+04 1.454985445696546549e+02
9.219219220000000496e+04 -1.670512824905659102e+02
9.229229230000000098e+04 -6.134450361863734713e+01
9.239239239999999700e+04 9.859117040048434433e+01
9.249249250000000757e+04 9.447702073269066148e+01
9.259259260000000359e+04 -1.925619685764916369e+02
9.269269269999999960e+04 -6.746797853019153912e+00
9.279279279999999562e+04 4.043226657031545983e+02
9.289289290000000619e+04 1.167251479117984871e+02
9.299299300000000221e+04 -5.716201597699646975e+00
9.309309309999999823e+04 8.692107122107030648e+01
9.319319320000000880e+04 -1.104177145061215413e+02
9.329329330000000482e+04 -1.597788463114330249e+01
9.339339340000000084e+04 -2.113710155265084722e+01
9.349349349999999686e+04 2.519260130183524993e+01
9.359359360000000743e+04 -4.153103252363418108e+01
9.369369370000000345e+04 -6.901990838075047918e+01
9.379379379999999946e+04 -2.328399884896088068e+01
9.389389389999999548e+04 3.441172161452050293e+00
9.399399400000000605e+04 -1.569574999489225320e+01
9.409409410000000207e+04 2.182526542634200553e+02
9.419419419999999809e+04 -6.903710564793885851e+01
9.429429430000000866e+04 -1.309582509475648493e+01
9.439439440000000468e+04 5.703002377777820442e+01
9.449449450000000070e+04 6.859859643621891223e+01
9.459459459999999672e+04 1.576547972833174640e+02
9.469469470000000729e+04 9.784021348007277297e+00
9.479479480000000331e+04 1.874083325723278293e+01
9.489489489999999932e+04 -4.136627192668819930e+01
9.499499499999999534e+04 -8.605180582683851753e+01
9.509509510000000591e+04 -1.040548603593920873e+01
9.519519520000000193e+04 -2.491904312632531173e+02
9.529529529999999795e+04 5.328662879785994733e+01
9.539539540000000852e+04 -1.732876816083470999e+02
9.549549550000000454e+04 -8.140250861040956920e+01
9.559559560000000056e+04 -5.890775596435196348e+01
9.569569569999999658e+04 -1.025258231302843370e+02
9.579579580000000715e+04 1.818061483383132781e+01
9.589589590000000317e+04 -1.830372693324429747e+02
9.599599599999999919e+04 -7.024165031567022766e+00
9.609609609999999520e+04 -1.181814290353176915e+02
9.619619620000000577e+04 3.871369865717752656e+00
9.629629630000000179e+04 9.960520105419391257e+00
9.639639639999999781e+04 -2.628653691089222377e+01
9.649649650000000838e+04 1.380153940499659271e+01
9.659659660000000440e+04 -3.538552321312489113e+01
9.669669670000000042e+04 -2.013213823699042564e+02
9.679679679999999644e+04 -3.689506211129557300e+01
9.689689690000000701e+04 2.334907019548805067e+02
9.699699700000000303e+04 -9.554403021470166379e+01
9.709709709999999905e+04 1.598928643484808561e+02
9.719719720000000962e+04 -1.812463446318440807e+00
9.729729730000000563e+04 1.740696088129333248e+02
9.739739740000000165e+04 3.201041649051671101e+01
9.749749749999999767e+04 -8.081439356836385812e+00
9.759759760000000824e+04 -1.483247068027623641e+02
9.769769770000000426e+04 1.175699037492352801e+02
9.779779780000000028e+04 -1.227635240521313342e+01
9.789789789999999630e+04 3.933188012393115773e+00
9.799799800000000687e+04 -1.443611693919667118e+02
9.809809810000000289e+04 -1.378360823974273153e+01
9.819819819999999891e+04 -1.237993886329191042e+02
9.829829830000000948e+04 5.855390047847638613e+01
9.839839840000000549e+04 -1.448549314163746544e+02
9.849849850000000151e+04 1.671244579957474663e+00
9.859859859999999753e+04 1.056336511542082803e+02
9.869869870000000810e+04 1.063731108260973741e+02
9.879879880000000412e+04 5.011206435639621048e+01
9.889889890000000014e+04 6.952813773915497109e+01
9.899899899999999616e+04 1.510635481236044164e+01
9.909909910000000673e+04 7.863463201396953650e+01
9.919919920000000275e+04 -6.624502613070835544e+00
9.929929929999999877e+04 1.045298456421243998e+02
9.939939940000000934e+04 2.983919133910743327e+01
9.949949950000000536e+04 -1.137124925969749825e+02
9.959959960000000137e+04 1.847871714075571958e+02
9.969969969999999739e+04 6.896064940164633583e+01
9.979979980000000796e+04 1.349359021225954791e+02
9.989989990000000398e+04 1.728865100430082009e+02
1.000000000000000000e+05 -4.901926116666539102e+00
